<?xml version="1.0" encoding="UTF-8"?>
<svg width="24px" height="24px" viewBox="0 0 24 24" version="1.1" xmlns="http://www.w3.org/2000/svg" xmlns:xlink="http://www.w3.org/1999/xlink">
    <!-- Generator: Sketch 48.1 (47250) - http://www.bohemiancoding.com/sketch -->
    <title>icon/20px/activity</title>
    <desc>Created with Sketch.</desc>
    <defs>
        <path d="M5,5 L19,5 C20.1045695,5 21,5.8954305 21,7 L21,17 C21,18.1045695 20.1045695,19 19,19 L5,19 C3.8954305,19 3,18.1045695 3,17 L3,7 C3,5.8954305 3.8954305,5 5,5 Z M5.98882093,8.99691478 C6.54110568,8.99691478 6.98882093,8.54919953 6.98882093,7.99691478 C6.98882093,7.44463003 6.54110568,6.99691478 5.98882093,6.99691478 C5.43653618,6.99691478 4.98882093,7.44463003 4.98882093,7.99691478 C4.98882093,8.54919953 5.43653618,8.99691478 5.98882093,8.99691478 Z M10.0069625,7.00123023 C9.45586942,7.00123023 9.00912022,7.44797944 9.00912022,7.99907251 C9.00912022,8.55016557 9.45586942,8.99691478 10.0069625,8.99691478 L18.0133368,8.99691478 C18.5644299,8.99691478 19.0111791,8.55016557 19.0111791,7.99907251 C19.0111791,7.44797944 18.5644299,7.00123023 18.0133368,7.00123023 L10.0069625,7.00123023 Z M5.00912022,11 L5.00912022,16.9819473 L19.0111791,16.9819473 L19.0111791,11 L5.00912022,11 Z" id="path-1"></path>
    </defs>
    <g id="Symbols" stroke="none" stroke-width="1" fill="none" fill-rule="evenodd">
        <g id="icon/20px/activity">
            <mask id="mask-2" fill="white">
                <use xlink:href="#path-1"></use>
            </mask>
            <use id="Combined-Shape" fill="#3F4F71" xlink:href="#path-1"></use>
        </g>
    </g>
</svg>