<?xml version="1.0" encoding="UTF-8"?>
<svg width="24px" height="24px" viewBox="0 0 24 24" version="1.1" xmlns="http://www.w3.org/2000/svg" xmlns:xlink="http://www.w3.org/1999/xlink">
    <!-- Generator: Sketch 48.1 (47250) - http://www.bohemiancoding.com/sketch -->
    <title>icon/20px/billing-filled</title>
    <desc>Created with Sketch.</desc>
    <defs>
        <path d="M5,3.99079514 C5,2.89130934 5.89706013,2 7.00585866,2 L16.9941413,2 C18.1019465,2 19,2.89821238 19,3.99079514 L19,20.0092049 C19,21.1086907 18.1029399,22 16.9941413,22 L7.00585866,22 C5.89805351,22 5,21.1017876 5,20.0092049 L5,3.99079514 Z M8,7 C8,7.55613518 8.4463856,8 8.99703014,8 L15.0029699,8 C15.5469637,8 16,7.55228475 16,7 C16,6.44386482 15.5536144,6 15.0029699,6 L8.99703014,6 C8.45303631,6 8,6.44771525 8,7 Z M8,10 C8,10.5561352 8.44762906,11 8.99980749,11 L12.0001925,11 C12.5562834,11 13,10.5522847 13,10 C13,9.44386482 12.5523709,9 12.0001925,9 L8.99980749,9 C8.44371665,9 8,9.44771525 8,10 Z M8,13 C8,13.5561352 8.44762906,14 8.99980749,14 L12.0001925,14 C12.5562834,14 13,13.5522847 13,13 C13,12.4438648 12.5523709,12 12.0001925,12 L8.99980749,12 C8.44371665,12 8,12.4477153 8,13 Z M8,16 C8,16.5561352 8.44762906,17 8.99980749,17 L12.0001925,17 C12.5562834,17 13,16.5522847 13,16 C13,15.4438648 12.5523709,15 12.0001925,15 L8.99980749,15 C8.44371665,15 8,15.4477153 8,16 Z M14,13 C14,13.5561352 14.4477153,14 15,14 C15.5561352,14 16,13.5522847 16,13 C16,12.4438648 15.5522847,12 15,12 C14.4438648,12 14,12.4477153 14,13 Z M14,16 C14,16.5561352 14.4477153,17 15,17 C15.5561352,17 16,16.5522847 16,16 C16,15.4438648 15.5522847,15 15,15 C14.4438648,15 14,15.4477153 14,16 Z M14,10 C14,10.5561352 14.4477153,11 15,11 C15.5561352,11 16,10.5522847 16,10 C16,9.44386482 15.5522847,9 15,9 C14.4438648,9 14,9.44771525 14,10 Z" id="path-1"></path>
    </defs>
    <g id="Symbols" stroke="none" stroke-width="1" fill="none" fill-rule="evenodd">
        <g id="icon/20px/billing-filled">
            <mask id="mask-2" fill="white">
                <use xlink:href="#path-1"></use>
            </mask>
            <use id="Combined-Shape" fill="#3F4F71" fill-rule="nonzero" xlink:href="#path-1"></use>
        </g>
    </g>
</svg>