<?xml version="1.0" encoding="UTF-8"?>
<svg width="24px" height="24px" viewBox="0 0 24 24" version="1.1" xmlns="http://www.w3.org/2000/svg" xmlns:xlink="http://www.w3.org/1999/xlink">
    <!-- Generator: Sketch 48.1 (47250) - http://www.bohemiancoding.com/sketch -->
    <title>icon/20px/camera-rotate</title>
    <desc>Created with Sketch.</desc>
    <defs>
        <path d="M8,5 L8,4 C8,3.44771525 8.45303631,3 8.99703014,3 L15.0029699,3 C15.5536144,3 16,3.44386482 16,4 L16,5 L20.0092049,5 C21.1086907,5 22,5.89451376 22,6.99406028 L22,19.0059397 C22,20.1072288 21.1017876,21 20.0092049,21 L3.99079514,21 C2.89130934,21 2,20.1054862 2,19.0059397 L2,6.99406028 C2,5.8927712 2.89821238,5 3.99079514,5 L8,5 Z M11.999875,17.8865394 C12.5521597,17.8865394 12.999875,17.4388242 12.999875,16.8865394 C12.999875,16.3342547 12.5521597,15.8865394 11.999875,15.8865394 C10.3430208,15.8865394 8.999875,14.5433937 8.999875,12.8865394 C8.999875,11.2296852 10.3430208,9.88653944 11.999875,9.88653944 C13.5043889,9.88653944 14.7502304,10.9940476 14.9666104,12.4382748 L14.705875,12.1775394 C14.511875,11.9825394 14.255875,11.8845394 13.999875,11.8845394 C13.743875,11.8845394 13.486875,11.9825394 13.291875,12.1775394 C12.902875,12.5685394 12.902875,13.2025394 13.291875,13.5925394 L15.288875,15.5885394 C15.485875,15.7855394 15.741875,15.8865394 16.000875,15.8865394 C16.254875,15.8865394 16.511875,15.7875394 16.711875,15.5885394 L18.706875,13.5925394 C19.097875,13.2025394 19.097875,12.5685394 18.706875,12.1775394 C18.510875,11.9825394 18.254875,11.8855394 17.998875,11.8855394 C17.743875,11.8855394 17.487875,11.9825394 17.292875,12.1775394 L16.9841084,12.4865448 C16.7803361,9.9121416 14.6266579,7.88653944 11.999875,7.88653944 C9.23845125,7.88653944 6.999875,10.1251157 6.999875,12.8865394 C6.999875,15.6479632 9.23845125,17.8865394 11.999875,17.8865394 Z" id="path-1"></path>
    </defs>
    <g id="Symbols" stroke="none" stroke-width="1" fill="none" fill-rule="evenodd">
        <g id="icon/20px/camera-rotate">
            <mask id="mask-2" fill="white">
                <use xlink:href="#path-1"></use>
            </mask>
            <use id="Combined-Shape" fill="#3F4F71" xlink:href="#path-1"></use>
        </g>
    </g>
</svg>