<?xml version="1.0" encoding="UTF-8"?>
<svg width="24px" height="24px" viewBox="0 0 24 24" version="1.1" xmlns="http://www.w3.org/2000/svg" xmlns:xlink="http://www.w3.org/1999/xlink">
    <!-- Generator: Sketch 48.1 (47250) - http://www.bohemiancoding.com/sketch -->
    <title>icon/20px/canvas</title>
    <desc>Created with Sketch.</desc>
    <defs>
        <path d="M15.9914698,4.96037927 L17.9931545,4.96037927 C18.5492199,4.96037927 19,5.4042441 19,5.96037927 C19,6.51039993 18.5537328,6.95670669 17.9999981,6.96035672 C17.9999994,6.96128413 18,6.96221169 18,6.9631394 L18,15.9576191 C18,15.9585468 17.9999994,15.9594743 17.9999981,15.9604017 C18.5529138,15.9640258 19,16.4065274 19,16.9603793 C19,17.512664 18.5500512,17.9603793 17.9931545,17.9603793 L6.00684547,17.9603793 C5.45078007,17.9603793 5,17.5165145 5,16.9603793 C5,16.4103586 5.44626718,15.9640519 6.00000189,15.9604018 C6.00000063,15.9594744 6,15.9585469 6,15.9576191 L6,6.9631394 C6,6.96221174 6.00000063,6.96128422 6.0000019,6.96035685 C5.44708624,6.95673273 5,6.51423119 5,5.96037927 C5,5.40809452 5.44994876,4.96037927 6.00684547,4.96037927 L8.0085302,4.96037927 L11,4.96037927 L11,2.95933583 C11,2.40762736 11.4438648,1.96037927 12,1.96037927 C12.5522847,1.96037927 13,2.4030396 13,2.95933583 L13,4.96037927 L15.9914698,4.96037927 Z M8,15.9576191 C8,15.9594138 15.9914698,15.9603793 15.9914698,15.9603793 C15.996113,15.9603793 16,6.9631394 16,6.9631394 C16,6.96134472 8.0085302,6.96037927 8.0085302,6.96037927 C8.003887,6.96037927 8,15.9576191 8,15.9576191 Z M10.2499706,18.9603793 L9.23,21.4219793 C9.019,21.9319793 8.438,22.1759793 7.924,21.9619793 C7.413,21.7509793 7.169,21.1699793 7.383,20.6569793 L8.08563232,18.9603793 L10.2499706,18.9603793 Z M15.6759797,18.9603793 L16.378,20.6569793 C16.59,21.1659793 16.351,21.7499793 15.837,21.9619793 C15.327,22.1739793 14.744,21.9349793 14.531,21.4219793 L13.5119171,18.9603793 L15.6759797,18.9603793 Z" id="path-1"></path>
    </defs>
    <g id="Symbols" stroke="none" stroke-width="1" fill="none" fill-rule="evenodd">
        <g id="icon/20px/canvas">
            <mask id="mask-2" fill="white">
                <use xlink:href="#path-1"></use>
            </mask>
            <use id="Combined-Shape" fill="#3F4F71" xlink:href="#path-1"></use>
        </g>
    </g>
</svg>