<?xml version="1.0" encoding="UTF-8"?>
<svg width="24px" height="24px" viewBox="0 0 24 24" version="1.1" xmlns="http://www.w3.org/2000/svg" xmlns:xlink="http://www.w3.org/1999/xlink">
    <!-- Generator: Sketch 48.1 (47250) - http://www.bohemiancoding.com/sketch -->
    <title>icon/20px/chevron-double-down</title>
    <desc>Created with Sketch.</desc>
    <defs>
        <path d="M11.287,11.7051 C11.681,12.0981 12.319,12.0981 12.713,11.7051 L17.704,6.7191 C18.099,6.3261 18.099,5.6881 17.704,5.2951 C17.31,4.9021 16.672,4.9021 16.278,5.2951 L12,9.5681 L7.722,5.2951 C7.328,4.9021 6.689,4.9021 6.295,5.2951 C5.901,5.6881 5.901,6.3261 6.295,6.7191 L11.287,11.7051 Z M17.704,12.2951 C18.099,12.6881 18.099,13.3261 17.704,13.7191 L12.713,18.7051 C12.319,19.0981 11.681,19.0981 11.287,18.7051 L6.295,13.7191 C5.901,13.3261 5.901,12.6881 6.295,12.2951 C6.689,11.9021 7.328,11.9021 7.722,12.2951 L12,16.5681 L16.278,12.2951 C16.672,11.9021 17.31,11.9021 17.704,12.2951 Z" id="path-1"></path>
    </defs>
    <g id="Symbols" stroke="none" stroke-width="1" fill="none" fill-rule="evenodd">
        <g id="icon/20px/chevron-double-down">
            <mask id="mask-2" fill="white">
                <use xlink:href="#path-1"></use>
            </mask>
            <use id="chevron-double-down" fill="#42526E" xlink:href="#path-1"></use>
        </g>
    </g>
</svg>