<?xml version="1.0" encoding="UTF-8"?>
<svg width="24px" height="24px" viewBox="0 0 24 24" version="1.1" xmlns="http://www.w3.org/2000/svg" xmlns:xlink="http://www.w3.org/1999/xlink">
    <!-- Generator: Sketch 48.1 (47250) - http://www.bohemiancoding.com/sketch -->
    <title>icon/20px/chevron-double-up</title>
    <desc>Created with Sketch.</desc>
    <defs>
        <path d="M16.2784747,11.7049889 L12,7.43167036 L7.72152528,11.7049889 C7.32770256,12.098337 6.68918977,12.098337 6.29536704,11.7049889 C5.90154432,11.3116408 5.90154432,10.6738975 6.29536704,10.2805494 L11.2869209,5.29501108 C11.6807436,4.90166297 12.3192564,4.90166297 12.7130791,5.29501108 L17.704633,10.2805494 C18.0984557,10.6738975 18.0984557,11.3116408 17.704633,11.7049889 C17.3108102,12.098337 16.6722974,12.098337 16.2784747,11.7049889 Z M16.2784747,18.7049889 L12,14.4316704 L7.72152528,18.7049889 C7.32770256,19.098337 6.68918977,19.098337 6.29536704,18.7049889 C5.90154432,18.3116408 5.90154432,17.6738975 6.29536704,17.2805494 L11.2869209,12.2950111 C11.6807436,11.901663 12.3192564,11.901663 12.7130791,12.2950111 L17.704633,17.2805494 C18.0984557,17.6738975 18.0984557,18.3116408 17.704633,18.7049889 C17.3108102,19.098337 16.6722974,19.098337 16.2784747,18.7049889 Z" id="path-1"></path>
    </defs>
    <g id="Symbols" stroke="none" stroke-width="1" fill="none" fill-rule="evenodd">
        <g id="icon/20px/chevron-double-up">
            <mask id="mask-2" fill="white">
                <use xlink:href="#path-1"></use>
            </mask>
            <use id="chevron-double-up" fill="#172B4D" fill-rule="nonzero" xlink:href="#path-1"></use>
        </g>
    </g>
</svg>