<?xml version="1.0" encoding="UTF-8"?>
<svg width="24px" height="24px" viewBox="0 0 24 24" version="1.1" xmlns="http://www.w3.org/2000/svg" xmlns:xlink="http://www.w3.org/1999/xlink">
    <!-- Generator: Sketch 48.1 (47250) - http://www.bohemiancoding.com/sketch -->
    <title>icon/20px/chevron-down</title>
    <desc>Created with Sketch.</desc>
    <defs>
        <path d="M17.257125,10.473125 L12.709125,15.031125 C12.514125,15.226125 12.257125,15.324125 12.001125,15.324125 C11.745125,15.324125 11.489125,15.227125 11.294125,15.032125 L11.293125,15.031125 L6.744125,10.472125 C6.332125,10.061125 6.333125,9.395125 6.744125,8.984125 C7.154125,8.573125 7.820125,8.573125 8.230125,8.984125 L8.231125,8.985125 L12.001125,12.761125 L15.769125,8.985125 C16.178125,8.574125 16.844125,8.573125 17.255125,8.984125 L17.256125,8.984125 C17.667125,9.395125 17.667125,10.061125 17.257125,10.473125" id="path-1"></path>
    </defs>
    <g id="Symbols" stroke="none" stroke-width="1" fill="none" fill-rule="evenodd">
        <g id="icon/20px/chevron-down">
            <mask id="mask-2" fill="white">
                <use xlink:href="#path-1"></use>
            </mask>
            <use id="chevron-down" fill="#42526E" xlink:href="#path-1"></use>
        </g>
    </g>
</svg>