<?xml version="1.0" encoding="UTF-8"?>
<svg width="24px" height="24px" viewBox="0 0 24 24" version="1.1" xmlns="http://www.w3.org/2000/svg" xmlns:xlink="http://www.w3.org/1999/xlink">
    <!-- Generator: Sketch 48.1 (47250) - http://www.bohemiancoding.com/sketch -->
    <title>bitbucket/20px/clone</title>
    <desc>Created with Sketch.</desc>
    <defs>
        <path d="M11,8.5859768 L11,4.00292933 C11,3.44902676 11.4438648,3 12,3 C12.5522847,3 13,3.43788135 13,4.00292933 L13,8.58547641 L13.29275,8.2925 C13.68375,7.9025 14.31575,7.9025 14.70675,8.2925 C15.09775,8.6835 15.09775,9.3175 14.70675,9.7075 L12.71175,11.7035 C12.51175,11.9025 12.25575,12.0015 12.00075,12.0015 C11.74275,12.0015 11.48575,11.9005 11.28875,11.7035 L9.29175,9.7075 C8.90275,9.3175 8.90275,8.6835 9.29175,8.2925 C9.68275,7.9025 10.31675,7.9025 10.70675,8.2925 L11,8.5859768 Z M14,19 L14.009222,19 C14.5564136,19 15,19.4438648 15,20 L15,21 L9,21 L9,20 C9,19.4477153 9.45097518,19 9.99077797,19 L10,19 L10,17 L14,17 L14,19 Z M8,4 L8,6 L5,6 L5,14 L19,14 L19,6 L16,6 L16,4 L19.0049107,4 C20.1067681,4 21,4.90195036 21,6.0085302 L21,13.9914698 C21,15.1007504 20.1073772,16 19.0049107,16 L4.99508929,16 C3.8932319,16 3,15.0980496 3,13.9914698 L3,6.0085302 C3,4.8992496 3.8926228,4 4.99508929,4 L8,4 Z" id="path-1"></path>
    </defs>
    <g id="Symbols" stroke="none" stroke-width="1" fill="none" fill-rule="evenodd">
        <g id="bitbucket/20px/clone">
            <mask id="mask-2" fill="white">
                <use xlink:href="#path-1"></use>
            </mask>
            <use id="clone" fill="#172B4D" fill-rule="nonzero" xlink:href="#path-1"></use>
        </g>
    </g>
</svg>