<?xml version="1.0" encoding="UTF-8"?>
<svg width="24px" height="24px" viewBox="0 0 24 24" version="1.1" xmlns="http://www.w3.org/2000/svg" xmlns:xlink="http://www.w3.org/1999/xlink">
    <!-- Generator: Sketch 48.1 (47250) - http://www.bohemiancoding.com/sketch -->
    <title>icon/20px/documents</title>
    <desc>Created with Sketch.</desc>
    <defs>
        <path d="M6,16.9998 L6,18.9998 L5,18.9998 C3.895,18.9998 3,18.1048 3,16.9998 L3,6.9998 C3,5.8948 3.895,4.9998 5,4.9998 L6,4.9998 L6,6.9998 L5,6.9998 L5,16.9998 L6,16.9998 Z M19,10.005 L21,10.005 L21,19 C21,20.104 20.105,21 19,21 L9,21 C7.895,21 7,20.104 7,19 L7,5 C7,3.895 7.895,3 9,3 L14.275,3 C14.744,3 15.197,3.164 15.557,3.464 L20.631,7.7 C20.858,7.89 20.99,8.171 20.99,8.468 L20.99,8.989 L16.49,8.989 C15.661,8.989 14.99,8.318 14.99,7.489 L14.99,5 L9,5 L9,19 L19,19 L19,10.005 Z" id="path-1"></path>
    </defs>
    <g id="Symbols" stroke="none" stroke-width="1" fill="none" fill-rule="evenodd">
        <g id="icon/20px/documents">
            <mask id="mask-2" fill="white">
                <use xlink:href="#path-1"></use>
            </mask>
            <use id="documents" fill="#42526E" xlink:href="#path-1"></use>
        </g>
    </g>
</svg>