<?xml version="1.0" encoding="UTF-8"?>
<svg width="24px" height="24px" viewBox="0 0 24 24" version="1.1" xmlns="http://www.w3.org/2000/svg" xmlns:xlink="http://www.w3.org/1999/xlink">
    <!-- Generator: Sketch 48.1 (47250) - http://www.bohemiancoding.com/sketch -->
    <title>icon/20px/Dropbox</title>
    <desc>Created with Sketch.</desc>
    <defs>
        <path d="M16.1890909,2.24715147 L11.9736364,5.74078783 L17.7863636,9.34896965 L22,6.01806056 L16.1890909,2.24715147 Z M2,6.20533328 L6.16181818,9.41896965 L11.9736364,5.74078783 L7.98181818,2.24896965 L2,6.20533328 Z M16.0090909,18.5598787 L15.9963636,17.5744242 L12.0018182,14.5989696 L8.16909091,17.5335151 L8.13272727,17.5898787 L6.02,16.312606 L6.02,18.4271515 L11.9972727,22.2507878 L17.9263636,18.4271515 L17.9263636,16.3898787 L16.01,17.5607878 L16.0090909,18.5598787 Z M6.15090909,9.42624238 L2.00727273,12.7780606 L5.61090909,14.9444242 L5.61272727,14.942606 L6.39818182,15.4180606 L7.98272727,16.3698787 L10.6345455,14.3562424 L11.9627273,13.3389696 L11.9672727,13.3435151 L11.9736364,13.3389696 L11.9954545,13.3553333 L12.0090909,13.3389696 L15.1645455,15.6871515 L16.0863636,16.3671515 L21.9963636,12.7744242 L17.7863636,9.35169692 L11.9772727,13.0335151 L6.15090909,9.42624238 Z M17.7863636,9.35169692 L17.7872727,9.34896965 L17.7863636,9.34896965 L17.7845455,9.34896965 L17.7863636,9.35169692 Z" id="path-1"></path>
    </defs>
    <g id="Symbols" stroke="none" stroke-width="1" fill="none" fill-rule="evenodd">
        <g id="icon/20px/Dropbox">
            <mask id="mask-2" fill="white">
                <use xlink:href="#path-1"></use>
            </mask>
            <use id="Dropbox" fill="#405070" xlink:href="#path-1"></use>
        </g>
    </g>
</svg>