<?xml version="1.0" encoding="UTF-8"?>
<svg width="24px" height="24px" viewBox="0 0 24 24" version="1.1" xmlns="http://www.w3.org/2000/svg" xmlns:xlink="http://www.w3.org/1999/xlink">
    <!-- Generator: Sketch 48.1 (47250) - http://www.bohemiancoding.com/sketch -->
    <title>bamboo/20px/failed-build</title>
    <desc>Created with Sketch.</desc>
    <defs>
        <path d="M13,8.9995 L13,11.9995 C13,12.5515 12.552,12.9995 12,12.9995 C11.448,12.9995 11,12.5515 11,11.9995 L11,8.9995 C11,8.4475 11.448,7.9995 12,7.9995 C12.552,7.9995 13,8.4475 13,8.9995 M13,14.9995 C13,15.5525 12.552,15.9995 12,15.9995 C11.448,15.9995 11,15.5525 11,14.9995 C11,14.4475 11.448,13.9995 12,13.9995 C12.552,13.9995 13,14.4475 13,14.9995 M12,17.9995 C8.692,17.9995 6,15.3085 6,11.9995 C6,8.6915 8.692,5.9995 12,5.9995 C15.309,5.9995 18,8.6915 18,11.9995 C18,15.3085 15.309,17.9995 12,17.9995 M12,3.9995 C7.582,3.9995 4,7.5815 4,11.9995 C4,16.4185 7.582,19.9995 12,19.9995 C16.418,19.9995 20,16.4185 20,11.9995 C20,7.5815 16.418,3.9995 12,3.9995" id="path-1"></path>
    </defs>
    <g id="Symbols" stroke="none" stroke-width="1" fill="none" fill-rule="evenodd">
        <g id="bamboo/20px/failed-build">
            <mask id="mask-2" fill="white">
                <use xlink:href="#path-1"></use>
            </mask>
            <use id="failed-build" fill="#172B4D" xlink:href="#path-1"></use>
        </g>
    </g>
</svg>