<?xml version="1.0" encoding="UTF-8"?>
<svg width="24px" height="24px" viewBox="0 0 24 24" version="1.1" xmlns="http://www.w3.org/2000/svg" xmlns:xlink="http://www.w3.org/1999/xlink">
    <!-- Generator: Sketch 48.1 (47250) - http://www.bohemiancoding.com/sketch -->
    <title>icon/20px/feedback</title>
    <desc>Created with Sketch.</desc>
    <defs>
        <path d="M10.881,5.4796 L2.455,12.3086 C2.059,12.6296 1.873,13.2646 2.042,13.7256 L2.141,13.9976 C2.309,14.4596 2.867,14.8266 3.368,14.8176 L4.499,14.7986 L10.561,14.6956 L14.213,14.6326 C14.723,14.6236 15.001,14.2476 14.829,13.7716 L11.906,5.7426 C11.801,5.4536 11.582,5.3006 11.339,5.3006 C11.189,5.3006 11.03,5.3586 10.881,5.4796 Z M4.98,15.9526 L7.074,15.8586 L8.613,20.0866 C8.802,20.6066 8.535,21.1796 8.016,21.3686 C7.497,21.5576 6.923,21.2906 6.734,20.7706 L4.98,15.9526 Z M18.691,6.8416 C18.804,6.8006 18.92,6.7816 19.033,6.7816 C19.442,6.7816 19.826,7.0336 19.973,7.4396 C20.162,7.9586 19.894,8.5316 19.376,8.7206 L16.556,9.7466 C16.037,9.9356 15.463,9.6686 15.274,9.1496 C15.085,8.6296 15.353,8.0566 15.872,7.8676 L18.691,6.8416 Z M16.899,10.6866 C17.007,10.6466 17.121,10.6266 17.239,10.6266 C17.296,10.6266 17.355,10.6316 17.413,10.6416 L20.368,11.1626 C20.725,11.2256 21.004,11.4696 21.126,11.7836 L21.143,11.8306 C21.194,11.9836 21.21,12.1506 21.18,12.3206 C21.084,12.8646 20.564,13.2286 20.021,13.1316 L17.066,12.6116 C16.523,12.5156 16.16,11.9966 16.255,11.4526 C16.32,11.0886 16.576,10.8056 16.899,10.6866 Z M16.351,3.0476 C16.548,2.8116 16.831,2.6906 17.117,2.6906 C17.343,2.6906 17.572,2.7666 17.759,2.9236 C18.182,3.2786 18.237,3.9106 17.882,4.3336 L15.954,6.6316 C15.599,7.0546 14.968,7.1086 14.545,6.7546 C14.122,6.3996 14.067,5.7676 14.422,5.3456 L16.351,3.0476 Z" id="path-1"></path>
    </defs>
    <g id="Symbols" stroke="none" stroke-width="1" fill="none" fill-rule="evenodd">
        <g id="icon/20px/feedback">
            <mask id="mask-2" fill="white">
                <use xlink:href="#path-1"></use>
            </mask>
            <use id="Mask" fill="#3F4F71" xlink:href="#path-1"></use>
        </g>
    </g>
</svg>