<?xml version="1.0" encoding="UTF-8"?>
<svg width="24px" height="24px" viewBox="0 0 24 24" version="1.1" xmlns="http://www.w3.org/2000/svg" xmlns:xlink="http://www.w3.org/1999/xlink">
    <!-- Generator: Sketch 48.1 (47250) - http://www.bohemiancoding.com/sketch -->
    <title>icon/20px/flag</title>
    <desc>Created with Sketch.</desc>
    <defs>
        <path d="M5.9961,12.4059377 L5.9961,18.8518602 C5.9961,19.3892046 6.4461,19.82885 6.9961,19.82885 C7.5461,19.82885 7.9961,19.3892046 7.9961,18.8518602 L7.9961,13.0742153 C9.16555916,12.7331882 10.384722,13.028819 11.764,13.3637373 C12.746,13.6017373 13.8,13.8587373 14.894,13.8587373 C15.726,13.8587373 16.581,13.7097373 17.441,13.2917373 C17.786,13.1237373 18.004,12.7757373 18.004,12.3917373 L18.004,5.63673729 C18.004,5.29273729 17.827,4.97173729 17.535,4.78973729 C17.244,4.60673729 16.878,4.58773729 16.567,4.73773729 C15.222,5.39073729 13.836,5.05373729 12.236,4.66573729 C10.507,4.24573729 8.549,3.77073729 6.558,4.73773729 C6.214,4.90473729 5.996,5.25473729 5.996,5.63673729 L5.996,12.3917373 C5.996,12.3964756 5.99603339,12.4012091 5.9961,12.4059377 Z" id="path-1"></path>
    </defs>
    <g id="Symbols" stroke="none" stroke-width="1" fill="none" fill-rule="evenodd">
        <g id="icon/20px/flag">
            <mask id="mask-2" fill="white">
                <use xlink:href="#path-1"></use>
            </mask>
            <use id="flag" fill="#42526E" fill-rule="nonzero" xlink:href="#path-1"></use>
        </g>
    </g>
</svg>