<?xml version="1.0" encoding="UTF-8"?>
<svg width="24px" height="24px" viewBox="0 0 24 24" version="1.1" xmlns="http://www.w3.org/2000/svg" xmlns:xlink="http://www.w3.org/1999/xlink">
    <!-- Generator: Sketch 48.1 (47250) - http://www.bohemiancoding.com/sketch -->
    <title>icon/20px/graph-line</title>
    <desc>Created with Sketch.</desc>
    <defs>
        <path d="M16.5857864,9 L15,9 C14.4477153,9 14,8.55228475 14,8 C14,7.44771525 14.4477153,7 15,7 L19,7 C19.5522847,7 20,7.44771525 20,8 L20,12 C20,12.5522847 19.5522847,13 19,13 C18.4477153,13 18,12.5522847 18,12 L18,10.4142136 L14.7071068,13.7071068 C14.3165825,14.0976311 13.6834175,14.0976311 13.2928932,13.7071068 L11,11.4142136 L7.70710678,14.7071068 C7.31658249,15.0976311 6.68341751,15.0976311 6.29289322,14.7071068 C5.90236893,14.3165825 5.90236893,13.6834175 6.29289322,13.2928932 L10.2928932,9.29289322 C10.6834175,8.90236893 11.3165825,8.90236893 11.7071068,9.29289322 L14,11.5857864 L16.5857864,9 Z M21,17 C21.5522847,17 22,17.4477153 22,18 C22,18.5522847 21.5522847,19 21,19 L4.99508929,19 C3.34015473,19 2,17.6495635 2,15.9914698 L2,6 C2,5.44771525 2.44771525,5 3,5 C3.55228475,5 4,5.44771525 4,6 L4,15.9914698 C4,16.5484013 4.4481604,17 4.99508929,17 L21,17 Z" id="path-1"></path>
    </defs>
    <g id="Symbols" stroke="none" stroke-width="1" fill="none" fill-rule="evenodd">
        <g id="icon/20px/graph-line">
            <mask id="mask-2" fill="white">
                <use xlink:href="#path-1"></use>
            </mask>
            <use id="Combined-Shape" fill="#42526E" fill-rule="nonzero" xlink:href="#path-1"></use>
        </g>
    </g>
</svg>