<?xml version="1.0" encoding="UTF-8"?>
<svg width="24px" height="24px" viewBox="0 0 24 24" version="1.1" xmlns="http://www.w3.org/2000/svg" xmlns:xlink="http://www.w3.org/1999/xlink">
    <!-- Generator: Sketch 48.1 (47250) - http://www.bohemiancoding.com/sketch -->
    <title>icon/20px/invite-team</title>
    <desc>Created with Sketch.</desc>
    <defs>
        <path d="M19,8 L20,8 C20.5522847,8 21,8.44771525 21,9 C21,9.55228475 20.5522847,10 20,10 L19,10 L19,11.009222 C19,11.5564136 18.5561352,12 18,12 C17.4477153,12 17,11.5490248 17,11.009222 L17,10 L16,10 C15.4477153,10 15,9.55228475 15,9 C15,8.44771525 15.4477153,8 16,8 L17,8 L17,6.99077797 C17,6.44358641 17.4438648,6 18,6 C18.5522847,6 19,6.45097518 19,6.99077797 L19,8 Z M10,11 C7.790861,11 6,9.209139 6,7 C6,4.790861 7.790861,3 10,3 C12.209139,3 14,4.790861 14,7 C14,9.209139 12.209139,11 10,11 Z M4,14.0001103 C4,12.8954799 4.90195036,12 6.0085302,12 L13.9914698,12 C15.1007504,12 16,12.8938878 16,14.006104 L16,18.4460997 C16,21.8513001 4,21.8513001 4,18.4460997 C4,21.8513001 4,14.0001103 4,14.0001103 Z" id="path-1"></path>
    </defs>
    <g id="Symbols" stroke="none" stroke-width="1" fill="none" fill-rule="evenodd">
        <g id="icon/20px/invite-team">
            <mask id="mask-2" fill="white">
                <use xlink:href="#path-1"></use>
            </mask>
            <use id="Mask" fill="#3F4F71" xlink:href="#path-1"></use>
        </g>
    </g>
</svg>