<?xml version="1.0" encoding="UTF-8"?>
<svg width="24px" height="24px" viewBox="0 0 24 24" version="1.1" xmlns="http://www.w3.org/2000/svg" xmlns:xlink="http://www.w3.org/1999/xlink">
    <!-- Generator: Sketch 48.1 (47250) - http://www.bohemiancoding.com/sketch -->
    <title>icon/20px/question</title>
    <desc>Created with Sketch.</desc>
    <defs>
        <path d="M9.99933944,9.50284059 C9.99780565,10.0531359 9.55072104,10.499275 9.00006843,10.499275 C8.47947804,10.499275 8.05145599,10.1005191 8.00497685,9.59198179 C8.00366612,9.5907816 8.00245668,9.58957216 8.00101692,9.58813239 C7.94601692,7.03013239 10.2910169,5.00413239 12.9390169,5.60713239 C14.3830169,5.93513239 15.5570169,7.10513239 15.8900169,8.54813239 C16.3810169,10.6771324 15.1720169,12.5911324 13.3590169,13.2471324 C13.1550169,13.3201324 13.0100169,13.5021324 13.0100169,13.7191324 L13.0100169,14.5001324 C13.0100169,15.0521324 12.5630169,15.5001324 12.0100169,15.5001324 C11.4580169,15.5001324 11.0100169,15.0521324 11.0100169,14.5001324 L11.0100169,13.3611324 L11.0100169,12.5261324 L11.0100169,12.4871324 C11.0180169,11.9411324 11.4600169,11.5001324 12.0080169,11.5001324 L12.0000169,11.5001324 C13.1030169,11.5001324 14.0000169,10.6021324 14.0000169,9.50013239 C14.0000169,8.39713239 13.1030169,7.50013239 12.0000169,7.50013239 C10.8960169,7.50013239 9.99901692,8.39813239 10.0000169,9.50213239 C9.99979056,9.50236904 9.99956474,9.5026051 9.99933944,9.50284059 Z M12.0000684,18.5 C11.4480684,18.5 11.0000684,18.052 11.0000684,17.5 C11.0000684,16.948 11.4480684,16.5 12.0000684,16.5 C12.5520684,16.5 13.0000684,16.948 13.0000684,17.5 C13.0000684,18.052 12.5520684,18.5 12.0000684,18.5 Z" id="path-1"></path>
    </defs>
    <g id="Symbols" stroke="none" stroke-width="1" fill="none" fill-rule="evenodd">
        <g id="icon/20px/question">
            <mask id="mask-2" fill="white">
                <use xlink:href="#path-1"></use>
            </mask>
            <use id="Combined-Shape" fill="#3F4F71" xlink:href="#path-1"></use>
        </g>
    </g>
</svg>