<?xml version="1.0" encoding="UTF-8"?>
<svg width="24px" height="24px" viewBox="0 0 24 24" version="1.1" xmlns="http://www.w3.org/2000/svg" xmlns:xlink="http://www.w3.org/1999/xlink">
    <!-- Generator: Sketch 48.1 (47250) - http://www.bohemiancoding.com/sketch -->
    <title>icon/20px/room-menu</title>
    <desc>Created with Sketch.</desc>
    <defs>
        <path d="M12,6.00684547 C12,5.45078007 12.4530363,5 12.9970301,5 L19.0029699,5 C19.5536144,5 20,5.44994876 20,6.00684547 L20,17.9931545 C20,18.5492199 19.5469637,19 19.0029699,19 L12.9970301,19 C12.4463856,19 12,18.5500512 12,17.9931545 L12,6.00684547 Z M14,17 L18,17 L18,7 L14,7 L14,17 Z M4,6 C4,5.44771525 4.45097518,5 4.99077797,5 L9.00922203,5 C9.55641359,5 10,5.44386482 10,6 C10,6.55228475 9.54902482,7 9.00922203,7 L4.99077797,7 C4.44358641,7 4,6.55613518 4,6 Z M4,10 C4,9.44771525 4.45097518,9 4.99077797,9 L9.00922203,9 C9.55641359,9 10,9.44386482 10,10 C10,10.5522847 9.54902482,11 9.00922203,11 L4.99077797,11 C4.44358641,11 4,10.5561352 4,10 Z M4,14 C4,13.4477153 4.45097518,13 4.99077797,13 L9.00922203,13 C9.55641359,13 10,13.4438648 10,14 C10,14.5522847 9.54902482,15 9.00922203,15 L4.99077797,15 C4.44358641,15 4,14.5561352 4,14 Z M4,18 C4,17.4477153 4.45097518,17 4.99077797,17 L9.00922203,17 C9.55641359,17 10,17.4438648 10,18 C10,18.5522847 9.54902482,19 9.00922203,19 L4.99077797,19 C4.44358641,19 4,18.5561352 4,18 Z" id="path-1"></path>
    </defs>
    <g id="Symbols" stroke="none" stroke-width="1" fill="none" fill-rule="evenodd">
        <g id="icon/20px/room-menu">
            <mask id="mask-2" fill="white">
                <use xlink:href="#path-1"></use>
            </mask>
            <use id="room-menu" fill="#42526E" xlink:href="#path-1"></use>
        </g>
    </g>
</svg>