<?xml version="1.0" encoding="UTF-8"?>
<svg width="24px" height="24px" viewBox="0 0 24 24" version="1.1" xmlns="http://www.w3.org/2000/svg" xmlns:xlink="http://www.w3.org/1999/xlink">
    <!-- Generator: Sketch 48.1 (47250) - http://www.bohemiancoding.com/sketch -->
    <title>icon/20px/screen</title>
    <desc>Created with Sketch.</desc>
    <defs>
        <path d="M5,14 L19,14 L19,6 L5,6 L5,14 Z M14,20 L14.5089948,20 C14.7801695,20 15,20.2319336 15,20.5 L15,21 L9,21 L9,20.5 C9,20.2238576 9.22788048,20 9.49100518,20 L10,20 L10,17 L14,17 L14,20 Z M3,6.0085302 C3,4.8992496 3.8926228,4 4.99508929,4 L19.0049107,4 C20.1067681,4 21,4.90195036 21,6.0085302 L21,13.9914698 C21,15.1007504 20.1073772,16 19.0049107,16 L4.99508929,16 C3.8932319,16 3,15.0980496 3,13.9914698 L3,6.0085302 Z" id="path-1"></path>
    </defs>
    <g id="Symbols" stroke="none" stroke-width="1" fill="none" fill-rule="evenodd">
        <g id="icon/20px/screen">
            <g id="icons/screen">
                <mask id="mask-2" fill="white">
                    <use xlink:href="#path-1"></use>
                </mask>
                <use id="Mask" fill="#172B4D" fill-rule="nonzero" xlink:href="#path-1"></use>
            </g>
        </g>
    </g>
</svg>