<?xml version="1.0" encoding="UTF-8"?>
<svg width="24px" height="24px" viewBox="0 0 24 24" version="1.1" xmlns="http://www.w3.org/2000/svg" xmlns:xlink="http://www.w3.org/1999/xlink">
    <!-- Generator: Sketch 48.1 (47250) - http://www.bohemiancoding.com/sketch -->
    <title>icon/20px/share</title>
    <desc>Created with Sketch.</desc>
    <defs>
        <path d="M8.99996363,11.9850693 C8.99998787,11.9900433 9,11.9950203 9,12 C9,12.1329887 8.99134665,12.2639564 8.97457229,12.3923706 L15.5906203,16.2122597 C16.1373526,15.4766231 17.0130157,15 18,15 C19.6568542,15 21,16.3431458 21,18 C21,19.6568542 19.6568542,21 18,21 C16.4048724,21 15.1005141,19.7550687 15.0055395,18.1838205 L8.06474571,14.1764338 C7.52689825,14.6868477 6.80001944,15 6,15 C4.34314575,15 3,13.6568542 3,12 C3,10.3431458 4.34314575,9 6,9 C6.9255037,9 7.75312288,9.41909342 8.30343318,10.0778559 L15.0070573,6.20740317 C15.002378,6.13887532 15,6.06971536 15,6 C15,4.34314575 16.3431458,3 18,3 C19.6568542,3 21,4.34314575 21,6 C21,7.65685425 19.6568542,9 18,9 C17.1369552,9 16.359029,8.63556407 15.811716,8.05218683 L8.99996358,11.9850693 Z M6,13 C6.55228475,13 7,12.5522847 7,12 C7,11.4477153 6.55228475,11 6,11 C5.44771525,11 5,11.4477153 5,12 C5,12.5522847 5.44771525,13 6,13 Z M18,7 C18.5522847,7 19,6.55228475 19,6 C19,5.44771525 18.5522847,5 18,5 C17.4477153,5 17,5.44771525 17,6 C17,6.55228475 17.4477153,7 18,7 Z M18,19 C18.5522847,19 19,18.5522847 19,18 C19,17.4477153 18.5522847,17 18,17 C17.4477153,17 17,17.4477153 17,18 C17,18.5522847 17.4477153,19 18,19 Z" id="path-1"></path>
    </defs>
    <g id="Symbols" stroke="none" stroke-width="1" fill="none" fill-rule="evenodd">
        <g id="icon/20px/share">
            <mask id="mask-2" fill="white">
                <use xlink:href="#path-1"></use>
            </mask>
            <use id="share" fill="#3F4F71" xlink:href="#path-1"></use>
        </g>
    </g>
</svg>