<?xml version="1.0" encoding="UTF-8"?>
<svg width="24px" height="24px" viewBox="0 0 24 24" version="1.1" xmlns="http://www.w3.org/2000/svg" xmlns:xlink="http://www.w3.org/1999/xlink">
    <!-- Generator: Sketch 48.1 (47250) - http://www.bohemiancoding.com/sketch -->
    <title>icon/20px/tag</title>
    <desc>Created with Sketch.</desc>
    <defs>
        <path d="M8.20731935,8.2076 C7.62131935,8.7926 6.67131935,8.7926 6.08531935,8.2076 C5.50031935,7.6216 5.50031935,6.6716 6.08531935,6.0856 C6.67131935,5.4996 7.62131935,5.4996 8.20731935,6.0856 C8.79231935,6.6716 8.79231935,7.6216 8.20731935,8.2076 M19.5203194,12.4496 L11.7153194,4.6446 C11.2853194,4.2146 10.6843194,4.0036 10.0803194,4.0706 L6.03431935,4.0006 C4.90231935,3.9806 3.98031935,4.9026 4.00031935,6.0346 L4.07031935,10.0806 C4.00331935,10.6846 4.21431935,11.2856 4.64431935,11.7156 L12.4493194,19.5206 C13.2273194,20.2986 14.5003194,20.2986 15.2773194,19.5206 L19.5203194,15.2776 C20.2983194,14.5006 20.2983194,13.2276 19.5203194,12.4496" id="path-1"></path>
    </defs>
    <g id="Symbols" stroke="none" stroke-width="1" fill="none" fill-rule="evenodd">
        <g id="icon/20px/tag">
            <mask id="mask-2" fill="white">
                <use xlink:href="#path-1"></use>
            </mask>
            <use id="tag" fill="#42526E" xlink:href="#path-1"></use>
        </g>
    </g>
</svg>