<?xml version="1.0" encoding="UTF-8"?>
<svg width="24px" height="24px" viewBox="0 0 24 24" version="1.1" xmlns="http://www.w3.org/2000/svg" xmlns:xlink="http://www.w3.org/1999/xlink">
    <!-- Generator: Sketch 48.1 (47250) - http://www.bohemiancoding.com/sketch -->
    <title>icon/20px/tray-empty</title>
    <desc>Created with Sketch.</desc>
    <defs>
        <path d="M14.8292943,17 L19,17 L19,5 L5,5 L5,17 L9.17070571,17 C9.58254212,18.1651924 10.6937812,19 12,19 C13.3062188,19 14.4174579,18.1651924 14.8292943,17 Z M5,3 L19,3 C20.1045695,3 21,3.8954305 21,5 L21,19 C21,20.1045695 20.1045695,21 19,21 L5,21 C3.8954305,21 3,20.1045695 3,19 L3,5 C3,3.8954305 3.8954305,3 5,3 Z" id="path-1"></path>
    </defs>
    <g id="Symbols" stroke="none" stroke-width="1" fill="none" fill-rule="evenodd">
        <g id="icon/20px/tray-empty">
            <mask id="mask-2" fill="white">
                <use xlink:href="#path-1"></use>
            </mask>
            <use id="tray-empty" fill="#172B4D" xlink:href="#path-1"></use>
        </g>
    </g>
</svg>