<?xml version="1.0" encoding="UTF-8"?>
<svg width="24px" height="24px" viewBox="0 0 24 24" version="1.1" xmlns="http://www.w3.org/2000/svg" xmlns:xlink="http://www.w3.org/1999/xlink">
    <!-- Generator: Sketch 48.1 (47250) - http://www.bohemiancoding.com/sketch -->
    <title>icon/20px/upload</title>
    <desc>Created with Sketch.</desc>
    <defs>
        <path d="M11.9886946,9.00006228 C11.9924581,9.00002024 11.9962267,8.99999917 12,8.99999917 C12.180638,8.99999917 12.3501389,9.04829579 12.4964476,9.13272885 C12.5861073,9.1818509 12.6703224,9.24460767 12.746,9.32099917 L14.711,11.3009992 C15.096,11.6899992 15.096,12.3199992 14.71,12.7089992 C14.324,13.0979992 13.699,13.0969992 13.313,12.7079992 L13.000239,12.392663 L13.001,19.9929992 C13.001,20.5499992 12.554,20.9999992 12.001,20.9999992 C11.449,21.0009992 11.001,20.5499992 11.001,19.9929992 L11.0002342,12.3460939 L10.687,12.6619992 C10.301,13.0509992 9.676,13.0509992 9.29,12.6619992 C8.903,12.2729992 8.903,11.6419992 9.29,11.2529992 L11.208,9.31999917 C11.421,9.10699917 11.699,8.99999917 11.977,8.99999917 C11.980898,8.99999917 11.9847963,9.00002021 11.9886946,9.00006228 Z M7.938,5.48099917 C9.075,3.90099917 11.001,3.02099917 12.976,2.99999917 C15.809,3.03899917 18.155,4.88399917 18.862,7.59099917 C20.688,8.00199917 22,9.66599917 22,11.6649992 C22,13.9549992 20.105,15.9999992 17.945,15.9999992 L13.981,15.9999992 L13.981,14.0069992 L17.945,14.0069992 C19.028,14.0069992 20.015,12.8719992 20.015,11.6649992 C20.015,10.4659992 19.175,9.50699917 18.039,9.50699917 L17.785,9.50699917 C17.774,9.50699917 17.775,9.50199917 17.762,9.50199917 C17.168,9.50199917 17.097,8.97699917 17.097,8.97699917 L17.051,8.63699917 C16.779,6.54099917 15.064,5.02699917 12.982,4.99299917 C11.467,5.01599917 9.996,5.76499917 9.266,7.11199917 L9.116,7.37899917 C9.116,7.37899917 8.846,7.87299917 8.241,7.62499917 L8.071,7.56199917 C7.787,7.46299917 7.49,7.41199917 7.101,7.41199917 L7.089,7.41199917 C5.454,7.41199917 3.985,8.72099917 3.985,10.4989992 C3.985,12.3439992 5.443,14.0069992 7.1,14.0069992 L9.981,14.0069992 L9.981,15.9999992 L7.1,15.9999992 C4.385,15.9999992 2,13.4079992 2,10.4989992 C2,7.61999917 4.356,5.41899917 7.161,5.41799917 C7.422,5.41799917 7.682,5.43899917 7.938,5.48099917 Z" id="path-1"></path>
    </defs>
    <g id="Symbols" stroke="none" stroke-width="1" fill="none" fill-rule="evenodd">
        <g id="icon/20px/upload">
            <mask id="mask-2" fill="white">
                <use xlink:href="#path-1"></use>
            </mask>
            <use id="upload" fill="#3F4F71" xlink:href="#path-1"></use>
        </g>
    </g>
</svg>