<?xml version="1.0" encoding="UTF-8"?>
<svg width="24px" height="24px" viewBox="0 0 24 24" version="1.1" xmlns="http://www.w3.org/2000/svg" xmlns:xlink="http://www.w3.org/1999/xlink">
    <!-- Generator: Sketch 48.1 (47250) - http://www.bohemiancoding.com/sketch -->
    <title>icon/20px/vid-pause</title>
    <desc>Created with Sketch.</desc>
    <defs>
        <path d="M7,6.00684547 C7,5.45078007 7.44335318,5 8.0093689,5 L9.9906311,5 C10.5480902,5 11,5.44994876 11,6.00684547 L11,17.9931545 C11,18.5492199 10.5566468,19 9.9906311,19 L8.0093689,19 C7.45190985,19 7,18.5500512 7,17.9931545 L7,6.00684547 Z M13,6.00684547 C13,5.45078007 13.4433532,5 14.0093689,5 L15.9906311,5 C16.5480902,5 17,5.44994876 17,6.00684547 L17,17.9931545 C17,18.5492199 16.5566468,19 15.9906311,19 L14.0093689,19 C13.4519098,19 13,18.5500512 13,17.9931545 L13,6.00684547 Z" id="path-1"></path>
    </defs>
    <g id="Symbols" stroke="none" stroke-width="1" fill="none" fill-rule="evenodd">
        <g id="icon/20px/vid-pause">
            <mask id="mask-2" fill="white">
                <use xlink:href="#path-1"></use>
            </mask>
            <use id="vid-pause" fill="#42526E" xlink:href="#path-1"></use>
        </g>
    </g>
</svg>