<?xml version="1.0" encoding="UTF-8"?>
<svg width="24px" height="24px" viewBox="0 0 24 24" version="1.1" xmlns="http://www.w3.org/2000/svg" xmlns:xlink="http://www.w3.org/1999/xlink">
    <!-- Generator: Sketch 48.1 (47250) - http://www.bohemiancoding.com/sketch -->
    <title>icon/20px/vid-share-screen</title>
    <desc>Created with Sketch.</desc>
    <defs>
        <path d="M17.5857864,5 L16,5 C15.4477153,5 15,4.55228475 15,4 C15,3.44771525 15.4477153,3 16,3 L20,3 C20.5522847,3 21,3.44771525 21,4 L21,8 C21,8.55228475 20.5522847,9 20,9 C19.4477153,9 19,8.55228475 19,8 L19,6.41421356 L13.7071068,11.7071068 C13.3165825,12.0976311 12.6834175,12.0976311 12.2928932,11.7071068 C11.9023689,11.3165825 11.9023689,10.6834175 12.2928932,10.2928932 L17.5857864,5 Z M14,19 L14.009222,19 C14.5564136,19 15,19.4438648 15,20 L15,21 L9,21 L9,20 C9,19.4477153 9.45097518,19 9.99077797,19 L10,19 L10,17 L14,17 L14,19 Z M13,4 L13,6 L5,6 L5,14 L19,14 L19,11 L21,11 L21,13.9914698 C21,15.1007504 20.1073772,16 19.0049107,16 L4.99508929,16 C3.8932319,16 3,15.0980496 3,13.9914698 L3,6.0085302 C3,4.8992496 3.8926228,4 4.99508929,4 L13,4 Z" id="path-1"></path>
    </defs>
    <g id="Symbols" stroke="none" stroke-width="1" fill="none" fill-rule="evenodd">
        <g id="icon/20px/vid-share-screen">
            <mask id="mask-2" fill="white">
                <use xlink:href="#path-1"></use>
            </mask>
            <use id="Combined-Shape" fill="#42526E" fill-rule="nonzero" xlink:href="#path-1"></use>
        </g>
    </g>
</svg>