<?xml version="1.0" encoding="UTF-8"?>
<svg width="24px" height="24px" viewBox="0 0 24 24" version="1.1" xmlns="http://www.w3.org/2000/svg" xmlns:xlink="http://www.w3.org/1999/xlink">
    <!-- Generator: Sketch 48.1 (47250) - http://www.bohemiancoding.com/sketch -->
    <title>icon/20px/video-camera-off</title>
    <desc>Created with Sketch.</desc>
    <defs>
        <path d="M17.0002,9.74244069 L18.9060057,7.83663497 L20.5312,7.02511582 C20.6832,6.948988 20.8432,6.91421356 20.9992,6.91421356 C21.5232,6.91421356 22.0002,7.3089504 22.0002,7.85500304 L22.0002,15.9734241 C22.0002,16.5194767 21.5232,16.9142136 20.9992,16.9142136 C20.8432,16.9142136 20.6822,16.8794391 20.5292,16.8023715 L17.0002,15.0316948 L17.0002,9.74244069 Z M14.938194,6.14759246 L3.29767203,17.7881144 C2.53943905,17.5037576 2,16.7712664 2,15.9119433 L2,7.91728379 C2,6.81080849 2.89436117,5.91461356 3.99857245,5.91461356 L14.0014276,5.91461356 C14.3399874,5.91461356 14.6588196,5.9988634 14.938194,6.14759246 Z M16,10.7426407 L16,15.9119433 C16,17.0184186 15.1056388,17.9146136 14.0014276,17.9146136 L8.82802712,17.9146136 L16,10.7426407 Z M3.79289322,20.1213203 C3.39964626,19.7280734 3.40155922,19.0984408 3.79108468,18.7089153 L18.7947018,3.70529824 C19.1867613,3.31323869 19.8165825,3.31658249 20.2071068,3.70710678 C20.6003537,4.10035374 20.5984408,4.72998634 20.2089153,5.1195118 L5.20529824,20.1231289 C4.81323869,20.5151884 4.18341751,20.5118446 3.79289322,20.1213203 Z" id="path-1"></path>
    </defs>
    <g id="Symbols" stroke="none" stroke-width="1" fill="none" fill-rule="evenodd">
        <g id="icon/20px/video-camera-off">
            <mask id="mask-2" fill="white">
                <use xlink:href="#path-1"></use>
            </mask>
            <use id="Combined-Shape" fill="#42526E" xlink:href="#path-1"></use>
        </g>
    </g>
</svg>