<?xml version="1.0" encoding="UTF-8"?>
<svg width="16px" height="16px" viewBox="0 0 16 16" version="1.1" xmlns="http://www.w3.org/2000/svg" xmlns:xlink="http://www.w3.org/1999/xlink">
    <!-- Generator: Sketch 48.2 (47327) - http://www.bohemiancoding.com/sketch -->
    <title>icon/16px/add-circle-16px</title>
    <desc>Created with Sketch.</desc>
    <defs>
        <path d="M8,15 C4.13400675,15 1,11.8659932 1,8 C1,4.13400675 4.13400675,1 8,1 C11.8659932,1 15,4.13400675 15,8 C15,11.8659932 11.8659932,15 8,15 Z M7.33244326,5.17089453 L7.33244326,7.33244326 L5.17089453,7.33244326 C4.80106809,7.33244326 4.5,7.62883845 4.5,8 C4.5,8.36849132 4.80106809,8.66755674 5.17089453,8.66755674 L7.33244326,8.66755674 L7.33244326,10.8291055 C7.33244326,11.1989319 7.62883845,11.5 8,11.5 C8.36849132,11.5 8.66755674,11.1989319 8.66755674,10.8291055 L8.66755674,8.66755674 L10.8291055,8.66755674 C11.1995995,8.66755674 11.5,8.37116155 11.5,8 C11.5,7.63150868 11.1989319,7.33244326 10.8291055,7.33244326 L8.66755674,7.33244326 L8.66755674,5.17089453 C8.66755674,4.80040053 8.37116155,4.5 8,4.5 C7.63150868,4.5 7.33244326,4.80106809 7.33244326,5.17089453 Z" id="path-1"></path>
    </defs>
    <g id="Symbols" stroke="none" stroke-width="1" fill="none" fill-rule="evenodd">
        <g id="icon/16px/add-circle">
            <mask id="mask-2" fill="white">
                <use xlink:href="#path-1"></use>
            </mask>
            <use id="add-circle-small" fill="#42526E" xlink:href="#path-1"></use>
        </g>
    </g>
</svg>