<?xml version="1.0" encoding="UTF-8"?>
<svg width="16px" height="16px" viewBox="0 0 16 16" version="1.1" xmlns="http://www.w3.org/2000/svg" xmlns:xlink="http://www.w3.org/1999/xlink">
    <!-- Generator: Sketch 48.2 (47327) - http://www.bohemiancoding.com/sketch -->
    <title>icon/16px/arrow-left-16px</title>
    <desc>Created with Sketch.</desc>
    <defs>
        <path d="M5.97825,12 C5.72225,12 5.46625,11.902 5.27025,11.706 L2.29225,8.711 C1.90225,8.317 1.90225,7.681 2.29225,7.289 L5.27025,4.294 C5.46725,4.099 5.72225,4 5.97925,4 C6.23325,4 6.48925,4.099 6.68525,4.294 C7.07525,4.688 7.07525,5.323 6.68525,5.716 L5.41425,6.995 L6.71125,6.995 L8.62225,6.995 L12.99925,6.995 C13.55225,6.995 14.00025,7.445 14.00025,8 C14.00025,8.555 13.55225,9.005 12.99925,9.005 L8.62225,9.005 L6.71125,9.005 L5.41425,9.005 L6.68525,10.284 C7.07525,10.677 7.07525,11.313 6.68525,11.706 C6.49025,11.902 6.23425,12 5.97825,12" id="path-1"></path>
    </defs>
    <g id="Symbols" stroke="none" stroke-width="1" fill="none" fill-rule="evenodd">
        <g id="icon/16px/arrow-left">
            <mask id="mask-2" fill="white">
                <use xlink:href="#path-1"></use>
            </mask>
            <use id="arrow-left-small" fill="#42526E" xlink:href="#path-1"></use>
        </g>
    </g>
</svg>