<?xml version="1.0" encoding="UTF-8"?>
<svg width="16px" height="16px" viewBox="0 0 16 16" version="1.1" xmlns="http://www.w3.org/2000/svg" xmlns:xlink="http://www.w3.org/1999/xlink">
    <!-- Generator: Sketch 48.2 (47327) - http://www.bohemiancoding.com/sketch -->
    <title>bitbucket/16px/branch-small-16px</title>
    <desc>Created with Sketch.</desc>
    <defs>
        <path d="M11.5,7 C10.948,7 10.5,6.552 10.5,6 C10.5,5.448 10.948,5 11.5,5 C12.052,5 12.5,5.448 12.5,6 C12.5,6.552 12.052,7 11.5,7 M4.5,13.5 C3.948,13.5 3.5,13.052 3.5,12.5 C3.5,11.948 3.948,11.5 4.5,11.5 C5.052,11.5 5.5,11.948 5.5,12.5 C5.5,13.052 5.052,13.5 4.5,13.5 M4.5,2.5 C5.052,2.5 5.5,2.948 5.5,3.5 C5.5,4.052 5.052,4.5 4.5,4.5 C3.948,4.5 3.5,4.052 3.5,3.5 C3.5,2.948 3.948,2.5 4.5,2.5 M14.5,6 C14.5,4.346 13.154,3 11.5,3 C9.846,3 8.5,4.346 8.5,6 C8.5,7.302 9.339,8.401 10.5,8.815 L10.5,10.5 C10.5,11.052 10.052,11.5 9.5,11.5 L7.5,11.5 C7.438,11.5 7.385,11.524 7.326,11.535 C7.026,10.66 6.34,9.974 5.465,9.674 C5.476,9.615 5.5,9.562 5.5,9.5 L5.5,6.5 C5.5,6.438 5.476,6.385 5.465,6.326 C6.645,5.922 7.5,4.814 7.5,3.5 C7.5,1.846 6.154,0.5 4.5,0.5 C2.846,0.5 1.5,1.846 1.5,3.5 C1.5,4.814 2.355,5.922 3.535,6.326 C3.524,6.385 3.5,6.438 3.5,6.5 L3.5,9.5 C3.5,9.562 3.524,9.615 3.535,9.674 C2.355,10.078 1.5,11.186 1.5,12.5 C1.5,14.154 2.846,15.5 4.5,15.5 C5.814,15.5 6.922,14.645 7.326,13.465 C7.385,13.476 7.438,13.5 7.5,13.5 L9.5,13.5 C11.154,13.5 12.5,12.154 12.5,10.5 L12.5,8.815 C13.661,8.401 14.5,7.302 14.5,6" id="path-1"></path>
    </defs>
    <g id="Symbols" stroke="none" stroke-width="1" fill="none" fill-rule="evenodd">
        <g id="bitbucket/16px/branch-small">
            <mask id="mask-2" fill="white">
                <use xlink:href="#path-1"></use>
            </mask>
            <use id="branch" fill="#42526E" xlink:href="#path-1"></use>
        </g>
    </g>
</svg>