<?xml version="1.0" encoding="UTF-8"?>
<svg width="16px" height="16px" viewBox="0 0 16 16" version="1.1" xmlns="http://www.w3.org/2000/svg" xmlns:xlink="http://www.w3.org/1999/xlink">
    <!-- Generator: Sketch 48.2 (47327) - http://www.bohemiancoding.com/sketch -->
    <title>icon/16px/chevron-double-up-16px</title>
    <desc>Created with Sketch.</desc>
    <defs>
        <path d="M5.698,7.705875 L8.005,5.378875 L10.302,7.695875 C10.691,8.087875 11.321,8.087875 11.709,7.695875 C12.097,7.304875 12.097,6.668875 11.709,6.276875 L8.779,3.321875 C8.353,2.892875 7.668,2.892875 7.232,3.321875 L4.291,6.287875 C3.903,6.678875 3.903,7.313875 4.291,7.705875 C4.68,8.097875 5.31,8.097875 5.698,7.705875 Z M11.709,11.276875 C12.097,11.668875 12.097,12.304875 11.709,12.695875 C11.321,13.087875 10.691,13.087875 10.302,12.695875 L8.005,10.378875 L5.698,12.705875 C5.31,13.097875 4.68,13.097875 4.291,12.705875 C3.903,12.313875 3.903,11.678875 4.291,11.287875 L7.232,8.321875 C7.668,7.892875 8.353,7.892875 8.779,8.321875 L11.709,11.276875 Z" id="path-1"></path>
    </defs>
    <g id="Symbols" stroke="none" stroke-width="1" fill="none" fill-rule="evenodd">
        <g id="icon/16px/chevron-double-up">
            <mask id="mask-2" fill="white">
                <use xlink:href="#path-1"></use>
            </mask>
            <use id="chevron-double-up-small" fill="#42526E" xlink:href="#path-1"></use>
        </g>
    </g>
</svg>