<?xml version="1.0" encoding="UTF-8"?>
<svg width="16px" height="16px" viewBox="0 0 16 16" version="1.1" xmlns="http://www.w3.org/2000/svg" xmlns:xlink="http://www.w3.org/1999/xlink">
    <!-- Generator: Sketch 48.2 (47327) - http://www.bohemiancoding.com/sketch -->
    <title>confluence/16px/copy-table-row</title>
    <desc>Created with Sketch.</desc>
    <defs></defs>
    <g id="Editor-icons---v2" stroke="none" stroke-width="1" fill="none" fill-rule="evenodd">
        <g id="confluence/16px/copy-table-row" fill="#42526E">
            <path d="M12,6 L3,6 L3,9 L2,9 C1.44771525,9 1,8.55228475 1,8 L1,5 C1,4.44771525 1.44771525,4 2,4 L11,4 C11.5522847,4 12,4.44771525 12,5 L12,6 Z" id="Combined-Shape"></path>
            <path d="M5,7 L14,7 C14.5522847,7 15,7.44771525 15,8 L15,11 C15,11.5522847 14.5522847,12 14,12 L5,12 C4.44771525,12 4,11.5522847 4,11 L4,8 C4,7.44771525 4.44771525,7 5,7 Z M6,9 L6,10 L13,10 L13,9 L6,9 Z" id="Combined-Shape"></path>
        </g>
    </g>
</svg>