<?xml version="1.0" encoding="UTF-8"?>
<svg width="16px" height="16px" viewBox="0 0 16 16" version="1.1" xmlns="http://www.w3.org/2000/svg" xmlns:xlink="http://www.w3.org/1999/xlink">
    <!-- Generator: Sketch 48.2 (47327) - http://www.bohemiancoding.com/sketch -->
    <title>icon/16px/credit card-16px</title>
    <desc>Created with Sketch.</desc>
    <defs>
        <path d="M13.2753288,2.72467122 C14.104309,2.72467122 14.7825656,3.40292777 14.7825656,4.23190801 L14.7825656,11.768092 C14.7825656,12.5970722 14.104309,13.2753288 13.2753288,13.2753288 L2.72467122,13.2753288 C1.89569098,13.2753288 1.21743442,12.5970722 1.21743442,11.768092 L1.21743442,4.23190801 C1.21743442,3.40292777 1.89569098,2.72467122 2.72467122,2.72467122 L13.2753288,2.72467122 Z M2.73446826,11.768092 L13.2851258,11.768092 L13.2851258,7.2463816 L2.73446826,7.2463816 L2.73446826,11.768092 Z M2.73446826,5.73914481 L13.2851258,5.73914481 L13.2851258,4.23190801 L2.73446826,4.23190801 L2.73446826,5.73914481 Z M4.24170505,10.2608552 L4.24170505,8.7536184 L5.74894185,8.7536184 L5.74894185,10.2608552 L4.24170505,10.2608552 Z" id="path-1"></path>
    </defs>
    <g id="Symbols" stroke="none" stroke-width="1" fill="none" fill-rule="evenodd">
        <g id="icon/16px/credit-card">
            <mask id="mask-2" fill="white">
                <use xlink:href="#path-1"></use>
            </mask>
            <use id="Combined-Shape" fill="#42526E" xlink:href="#path-1"></use>
        </g>
    </g>
</svg>