<?xml version="1.0" encoding="UTF-8"?>
<svg width="16px" height="16px" viewBox="0 0 16 16" version="1.1" xmlns="http://www.w3.org/2000/svg" xmlns:xlink="http://www.w3.org/1999/xlink">
    <!-- Generator: Sketch 48.2 (47327) - http://www.bohemiancoding.com/sketch -->
    <title>icon/16px/cross-circle-16px</title>
    <desc>Created with Sketch.</desc>
    <defs>
        <path d="M10.707,9.293 C11.098,9.684 11.098,10.316 10.707,10.707 C10.512,10.902 10.256,11 10,11 C9.744,11 9.488,10.902 9.293,10.707 L8,9.414 L6.707,10.707 C6.512,10.902 6.256,11 6,11 C5.744,11 5.488,10.902 5.293,10.707 C4.902,10.316 4.902,9.684 5.293,9.293 L6.586,8 L5.293,6.707 C4.902,6.316 4.902,5.684 5.293,5.293 C5.684,4.902 6.316,4.902 6.707,5.293 L8,6.586 L9.293,5.293 C9.684,4.902 10.316,4.902 10.707,5.293 C11.098,5.684 11.098,6.316 10.707,6.707 L9.414,8 L10.707,9.293 Z M8,1 C4.134,1 1,4.134 1,8 C1,11.866 4.134,15 8,15 C11.866,15 15,11.866 15,8 C15,4.134 11.866,1 8,1 Z" id="path-1"></path>
    </defs>
    <g id="Symbols" stroke="none" stroke-width="1" fill="none" fill-rule="evenodd">
        <g id="icon/16px/cross-circle">
            <mask id="mask-2" fill="white">
                <use xlink:href="#path-1"></use>
            </mask>
            <use id="cross-circle-small" fill="#42526E" xlink:href="#path-1"></use>
        </g>
    </g>
</svg>