<?xml version="1.0" encoding="UTF-8"?>
<svg width="16px" height="16px" viewBox="0 0 16 16" version="1.1" xmlns="http://www.w3.org/2000/svg" xmlns:xlink="http://www.w3.org/1999/xlink">
    <!-- Generator: Sketch 48.2 (47327) - http://www.bohemiancoding.com/sketch -->
    <title>icon/16px/document-filled-16px</title>
    <desc>Created with Sketch.</desc>
    <defs>
        <path d="M13.2861708,5.72293843 L13.2937333,6.49128601 L13.2937333,13.2937333 C13.2937333,14.1286307 12.6168917,14.8062285 11.7812381,14.8062285 L4.21876192,14.8062285 C3.38310831,14.8062285 2.70626669,14.1286307 2.70626669,13.2937333 L2.70626669,2.70626669 C2.70626669,1.87061308 3.38310831,1.19377146 4.21876192,1.19377146 L8.20796809,1.19377146 C8.56264823,1.19377146 8.9052284,1.31779607 9.17747754,1.54467035 L13.0146779,4.74813525 C13.1863461,4.8918223 13.2861708,5.10432788 13.2861708,5.32893342 L13.2861708,5.72293843 Z M8.01441499,2.70611544 L8.00151236,4.86858654 C7.99816473,5.42964642 8.44033455,5.86950173 8.98901608,5.86950173 L11.7767784,5.86950173 L8.01441499,2.70611544 Z" id="path-1"></path>
    </defs>
    <g id="Symbols" stroke="none" stroke-width="1" fill="none" fill-rule="evenodd">
        <g id="icon/16px/document-filled">
            <mask id="mask-2" fill="white">
                <use xlink:href="#path-1"></use>
            </mask>
            <use id="Combined-Shape" fill="#3F4F71" xlink:href="#path-1"></use>
        </g>
    </g>
</svg>