<?xml version="1.0" encoding="UTF-8"?>
<svg width="16px" height="16px" viewBox="0 0 16 16" version="1.1" xmlns="http://www.w3.org/2000/svg" xmlns:xlink="http://www.w3.org/1999/xlink">
    <!-- Generator: Sketch 48.2 (47327) - http://www.bohemiancoding.com/sketch -->
    <title>icon/16px/document-16px</title>
    <desc>Created with Sketch.</desc>
    <defs>
        <path d="M8.5,5 L8.5,3 L4.5,3 L4.5,13 L11.5,13 L11.5,7 L13.5,7 L13.5,13 C13.5,14.1 12.6,15 11.5,15 L4.5,15 C3.4,15 2.5,14.1 2.5,13 L2.5,3 C2.5,1.9 3.4,1 4.5,1 L8.671,1 C9.202,1 9.711,1.211 10.086,1.586 L12.914,4.414 C13.289,4.789 13.5,5.298 13.5,5.829 L13.5,6 L9.5,6 C8.95,6 8.5,5.55 8.5,5" id="path-1"></path>
    </defs>
    <g id="Symbols" stroke="none" stroke-width="1" fill="none" fill-rule="evenodd">
        <g id="icon/16px/document">
            <mask id="mask-2" fill="white">
                <use xlink:href="#path-1"></use>
            </mask>
            <use id="document" fill="#42526E" xlink:href="#path-1"></use>
        </g>
    </g>
</svg>