<?xml version="1.0" encoding="UTF-8"?>
<svg width="16px" height="16px" viewBox="0 0 16 16" version="1.1" xmlns="http://www.w3.org/2000/svg" xmlns:xlink="http://www.w3.org/1999/xlink">
    <!-- Generator: Sketch 48.2 (47327) - http://www.bohemiancoding.com/sketch -->
    <title>icon/16px/download-16px</title>
    <desc>Created with Sketch.</desc>
    <defs>
        <path d="M7.31947918,11.8195451 L7.31896078,6.64218497 C7.31892287,6.26359046 7.62383428,5.95664804 7.99999947,5.95660989 C8.37616466,5.95657174 8.68113753,6.2634523 8.68117544,6.6420468 L8.68169693,11.850256 L8.89445439,11.6359221 C9.15728933,11.3711398 9.58342896,11.3711398 9.8462639,11.6359221 C10.1090988,11.9007045 10.1090988,12.3300015 9.8462639,12.5947839 L8.53923778,13.9114942 C8.39279249,14.0590245 8.20012056,14.1318181 8.00804191,14.1298594 C8.00563686,14.1298848 8.00322882,14.1298976 8.00081785,14.1298979 C7.88359705,14.1299098 7.77328955,14.1001176 7.67696855,14.0476388 C7.61023542,14.0130965 7.54762564,13.9676751 7.49173822,13.9113736 L6.15375267,12.5627965 C5.89098383,12.2979476 5.89109098,11.8686506 6.153992,11.6039348 C6.41689302,11.339219 6.84303264,11.339327 7.10580148,11.6041759 L7.31947918,11.8195451 Z M11.2958784,3.51692253 C13.2063844,3.51760643 14.8110733,5.01670541 14.8110733,6.97743387 C14.8110733,8.9586792 13.1866323,10.7244974 11.3374259,10.7244974 L9.3751557,10.7244974 L9.3751557,9.36696483 L11.3374259,9.36696483 C12.4660208,9.36696483 13.4590753,8.23443384 13.4590753,6.97743387 C13.4590753,5.76625491 12.4585286,4.87513904 11.3449181,4.87513904 L11.3367448,4.87513904 C11.0717941,4.87513904 10.8695052,4.91001771 10.6760707,4.97772337 L10.5602825,5.02012489 C10.1482125,5.18904709 9.96431355,4.85257049 9.96431355,4.85257049 L9.86214745,4.67065428 C9.36493909,3.75355038 8.36303021,3.24336433 7.3311526,3.22763473 C5.91308713,3.25088718 4.74498806,4.28151773 4.55972686,5.70949158 L4.52839593,5.94133216 C4.52839593,5.94133216 4.48003731,6.29832562 4.07545955,6.29832562 C4.06660516,6.29832562 4.06728626,6.30242899 4.05979408,6.30242899 L3.88679282,6.30242899 C3.11305489,6.30242899 2.54092473,6.95486532 2.54092473,7.77212047 C2.54092473,8.59347899 3.21317767,9.36696483 3.95081691,9.36696483 L6.65072637,9.36696483 L6.65072637,10.7244974 L3.95081691,10.7244974 C2.47962507,10.7244974 1.18892668,9.33140226 1.18892668,7.77212047 C1.18892668,6.40980059 2.0825395,5.27658571 3.32624149,4.99687244 C3.80778437,3.15309012 5.40566217,1.89677404 7.33523924,1.87010212 C8.68042622,1.88446392 9.99223895,2.4835564 10.766658,3.55932406 C10.9410215,3.53128434 11.1181094,3.51692253 11.2958784,3.51692253 Z" id="path-1"></path>
    </defs>
    <g id="Symbols" stroke="none" stroke-width="1" fill="none" fill-rule="evenodd">
        <g id="icon/16px/download">
            <mask id="mask-2" fill="white">
                <use xlink:href="#path-1"></use>
            </mask>
            <use id="download" fill="#42526E" fill-rule="nonzero" xlink:href="#path-1"></use>
        </g>
    </g>
</svg>