<?xml version="1.0" encoding="UTF-8"?>
<svg width="16px" height="16px" viewBox="0 0 16 16" version="1.1" xmlns="http://www.w3.org/2000/svg" xmlns:xlink="http://www.w3.org/1999/xlink">
    <!-- Generator: Sketch 48.2 (47327) - http://www.bohemiancoding.com/sketch -->
    <title>icon/16px/emoji-16px</title>
    <desc>Created with Sketch.</desc>
    <defs>
        <path d="M8,1 C11.866,1 15,4.134 15,8 C15,11.866 11.866,15 8,15 C4.134,15 1,11.866 1,8 C1,4.134 4.134,1 8,1 Z M8,13.5 C11.033,13.5 13.5,11.033 13.5,8 C13.5,4.967 11.033,2.5 8,2.5 C4.967,2.5 2.5,4.967 2.5,8 C2.5,11.033 4.967,13.5 8,13.5 Z M6.50000002,7.50000003 C5.948,7.50000003 5.5,7.05200003 5.5,6.50000002 C5.5,5.948 5.948,5.5 6.50000002,5.5 C7.05200003,5.5 7.50000003,5.948 7.50000003,6.50000002 C7.50000003,7.05200003 7.05200003,7.50000003 6.50000002,7.50000003 Z M9.49999998,7.50000003 C8.94799997,7.50000003 8.49999997,7.05200003 8.49999997,6.50000002 C8.49999997,5.948 8.94799997,5.5 9.49999998,5.5 C10.052,5.5 10.5,5.948 10.5,6.50000002 C10.5,7.05200003 10.052,7.50000003 9.49999998,7.50000003 Z M9.77000001,9.08300002 C10,8.826 10.395,8.80400001 10.653,9.03400002 C10.91,9.26500002 10.932,9.65999999 10.702,9.91700001 C10.014,10.685 9.02999999,11.125 8,11.125 C6.97199999,11.125 5.988,10.686 5.302,9.92099997 C5.071,9.66400002 5.093,9.26899998 5.35,9.03799998 C5.606,8.80799997 6.001,8.82799998 6.232,9.08599999 C7.13299999,10.089 8.87099997,10.089 9.77000001,9.08300002 Z" id="path-1"></path>
    </defs>
    <g id="Symbols" stroke="none" stroke-width="1" fill="none" fill-rule="evenodd">
        <g id="icon/16px/emoji">
            <mask id="mask-2" fill="white">
                <use xlink:href="#path-1"></use>
            </mask>
            <use id="path-1" fill="#45526C" fill-rule="nonzero" xlink:href="#path-1"></use>
        </g>
    </g>
</svg>