<?xml version="1.0" encoding="UTF-8"?>
<svg width="16px" height="16px" viewBox="0 0 16 16" version="1.1" xmlns="http://www.w3.org/2000/svg" xmlns:xlink="http://www.w3.org/1999/xlink">
    <!-- Generator: Sketch 48.2 (47327) - http://www.bohemiancoding.com/sketch -->
    <title>icon/16px/error-16px</title>
    <desc>Created with Sketch.</desc>
    <defs></defs>
    <g id="Symbols" stroke="none" stroke-width="1" fill="none" fill-rule="evenodd">
        <g id="icon/16px/error" fill="#3F4F71">
            <path d="M9.41418983,1.70391265 L14.2961209,6.58612293 C15.0793436,7.36939046 15.0771564,8.63351178 14.2961209,9.41450258 L9.41418983,14.2961545 C8.63096709,15.0793324 7.36684565,15.0771453 6.58581017,14.2961545 L1.7038791,9.41450258 C0.920656359,8.63132464 0.922843623,7.36720307 1.7038791,6.58612293 L6.58581017,1.70391265 C7.36903291,0.920645113 8.63315435,0.922832503 9.41418983,1.70391265 Z M9,8 L9,5 C9,4.448 8.552,4 8,4 C7.448,4 7,4.448 7,5 L7,8 C7,8.552 7.448,9 8,9 C8.552,9 9,8.552 9,8 Z M8,12 C8.552,12 9,11.552 9,11 C9,10.448 8.552,10 8,10 C7.448,10 7,10.448 7,11 C7,11.552 7.448,12 8,12 Z" id="Combined-Shape"></path>
        </g>
    </g>
</svg>