<?xml version="1.0" encoding="UTF-8"?>
<svg width="16px" height="16px" viewBox="0 0 16 16" version="1.1" xmlns="http://www.w3.org/2000/svg" xmlns:xlink="http://www.w3.org/1999/xlink">
    <!-- Generator: Sketch 48.2 (47327) - http://www.bohemiancoding.com/sketch -->
    <title>icon/16px/feedback-16px</title>
    <desc>Created with Sketch.</desc>
    <defs>
        <path d="M7.49544535,3.29932757 L1.47633134,8.17762446 C1.1934487,8.40693084 1.06057958,8.86054316 1.18130475,9.18985856 L1.25202541,9.38416179 C1.37203623,9.71419154 1.77064359,9.97635803 2.12853299,9.96992888 L2.93646296,9.95635623 L7.26685331,9.88277817 L9.87565991,9.83777411 C10.2399785,9.83134496 10.4385678,9.56274932 10.3156996,9.22271867 L8.22765421,3.48720165 C8.15264745,3.28075447 7.99620477,3.1714589 7.8226177,3.1714589 C7.71546518,3.1714589 7.60188351,3.21289121 7.49544535,3.29932757 Z M3.28006536,10.7807163 L4.77591449,10.7135673 L5.8752993,13.7338396 C6.01031147,14.1053017 5.81958,14.5146243 5.44883229,14.6496364 C5.07808458,14.7846486 4.66804762,14.5939171 4.53303545,14.2224551 L3.28006536,10.7807163 Z M13.0745197,4.27227242 C13.1552413,4.24298407 13.2381059,4.22941141 13.3188274,4.22941141 C13.6109966,4.22941141 13.8853071,4.40942764 13.9903165,4.69945378 C14.1253287,5.07020149 13.9338829,5.4795241 13.5638495,5.61453627 L11.5493822,6.34745948 C11.1786345,6.48247165 10.7685975,6.29174017 10.6335854,5.92099247 C10.4985732,5.54953041 10.690019,5.1402078 11.0607667,5.00519563 L13.0745197,4.27227242 Z M11.7944043,7.01894858 C11.8715541,6.99037458 11.95299,6.97608758 12.0372833,6.97608758 C12.0780013,6.97608758 12.1201479,6.97965933 12.1615803,6.98680283 L14.2724848,7.35897924 C14.5275078,7.40398329 14.7268115,7.57828472 14.8139622,7.80259065 L14.8261062,7.83616511 C14.862538,7.94546067 14.8739676,8.06475714 14.8525371,8.18619666 C14.7839595,8.57480312 14.4124974,8.83482656 14.0246053,8.7655346 L11.9137008,8.39407254 C11.5258087,8.32549493 11.2664996,7.95474723 11.3343628,7.56614077 C11.3807956,7.30611733 11.5636692,7.10395625 11.7944043,7.01894858 Z M11.4029404,1.56202811 C11.5436674,1.39344149 11.7458285,1.30700512 11.9501326,1.30700512 C12.1115757,1.30700512 12.2751619,1.36129573 12.4087454,1.4734487 C12.7109155,1.72704299 12.7502047,2.17851226 12.4966105,2.48068235 L11.1193434,4.1222589 C10.8657492,4.42442899 10.4149942,4.4630039 10.1128241,4.21012396 C9.81065405,3.95652967 9.77136479,3.5050604 10.0249591,3.20360466 L11.4029404,1.56202811 Z" id="path-1"></path>
    </defs>
    <g id="Symbols" stroke="none" stroke-width="1" fill="none" fill-rule="evenodd">
        <g id="icon/16px/feedback">
            <mask id="mask-2" fill="white">
                <use xlink:href="#path-1"></use>
            </mask>
            <use id="Mask" fill="#3E4E72" xlink:href="#path-1"></use>
        </g>
    </g>
</svg>