<?xml version="1.0" encoding="UTF-8"?>
<svg width="16px" height="16px" viewBox="0 0 16 16" version="1.1" xmlns="http://www.w3.org/2000/svg" xmlns:xlink="http://www.w3.org/1999/xlink">
    <!-- Generator: Sketch 48.2 (47327) - http://www.bohemiancoding.com/sketch -->
    <title>icon/16px/filter-16px</title>
    <desc>Created with Sketch.</desc>
    <defs>
        <path d="M4.10881901,8.77816902 L3.33064999,7.22183098 L12.6686783,7.22183098 L11.8905092,8.77816902 L4.10881901,8.77816902 Z M1.76917422,3.33098586 L14.230154,3.33098586 C14.6569419,3.33098586 14.8473285,3.64269944 14.6550694,4.02721762 L14.2250163,4.88732391 L1.77431194,4.88732391 L1.3442588,4.02721762 C1.15361703,3.64593409 1.34224082,3.33098586 1.76917422,3.33098586 Z M7.04879417,12.3236123 L6.44332608,11.1126761 L9.55600217,11.1126761 L8.95053407,12.3236123 C8.8552919,12.5140966 8.60200202,12.6690141 8.38510334,12.6690141 L7.61422491,12.6690141 C7.38805053,12.6690141 7.14417426,12.5143725 7.04879417,12.3236123 Z" id="path-1"></path>
    </defs>
    <g id="Symbols" stroke="none" stroke-width="1" fill="none" fill-rule="evenodd">
        <g id="icon/16px/filter">
            <mask id="mask-2" fill="white">
                <use xlink:href="#path-1"></use>
            </mask>
            <use id="Combined-Shape" fill="#42526E" xlink:href="#path-1"></use>
        </g>
    </g>
</svg>