<?xml version="1.0" encoding="UTF-8"?>
<svg width="16px" height="16px" viewBox="0 0 16 16" version="1.1" xmlns="http://www.w3.org/2000/svg" xmlns:xlink="http://www.w3.org/1999/xlink">
    <!-- Generator: Sketch 48.2 (47327) - http://www.bohemiancoding.com/sketch -->
    <title>icon/16px/flag-16px</title>
    <desc>Created with Sketch.</desc>
    <defs>
        <path d="M13,3.71191579 L13,7.63691579 C13,8.06291579 12.729,8.44491579 12.328,8.58991579 C11.441,8.90791579 10.554,8.87391579 9.667,8.70391579 C8.556,8.48991579 7.444,8.06391579 6.333,7.85091579 C5.889,7.76591579 5.444,7.71691579 5,7.72691579 L5,13.2769158 C5,13.8299158 4.553,14.2769158 4,14.2769158 C3.447,14.2769158 3,13.8299158 3,13.2769158 L3,8.27691579 L3,3.27691579 L3,2.27691579 C4.111,1.63791579 5.223,1.63691579 6.333,1.85091579 C7.444,2.06491579 8.556,2.48991579 9.667,2.70391579 C10.375,2.83991579 11.083,2.88891579 11.791,2.74091579 C12.414,2.61091579 13,3.07491579 13,3.71191579" id="path-1"></path>
    </defs>
    <g id="Symbols" stroke="none" stroke-width="1" fill="none" fill-rule="evenodd">
        <g id="icon/16px/flag">
            <mask id="mask-2" fill="white">
                <use xlink:href="#path-1"></use>
            </mask>
            <use id="Fill-1" fill="#42526E" xlink:href="#path-1"></use>
        </g>
    </g>
</svg>