<?xml version="1.0" encoding="UTF-8"?>
<svg width="16px" height="16px" viewBox="0 0 16 16" version="1.1" xmlns="http://www.w3.org/2000/svg" xmlns:xlink="http://www.w3.org/1999/xlink">
    <!-- Generator: Sketch 48.2 (47327) - http://www.bohemiancoding.com/sketch -->
    <title>confluence/16px/image</title>
    <desc>Created with Sketch.</desc>
    <defs></defs>
    <g id="Editor-icons---v2" stroke="none" stroke-width="1" fill="none" fill-rule="evenodd">
        <g id="confluence/16px/image" fill="#42526E">
            <path d="M6.9805383,10.6992782 L6.01977539,9.47344971 L4,12 L5.52429199,12 L12,12 L12,10.0822817 L10.0025635,8 L6.9805383,10.6992782 Z M4,2 L12,2 C13.1045695,2 14,2.8954305 14,4 L14,12 C14,13.1045695 13.1045695,14 12,14 L4,14 C2.8954305,14 2,13.1045695 2,12 L2,4 C2,2.8954305 2.8954305,2 4,2 Z M5.25,6.5 C5.94035594,6.5 6.5,5.94035594 6.5,5.25 C6.5,4.55964406 5.94035594,4 5.25,4 C4.55964406,4 4,4.55964406 4,5.25 C4,5.94035594 4.55964406,6.5 5.25,6.5 Z" id="Combined-Shape"></path>
        </g>
    </g>
</svg>