<?xml version="1.0" encoding="UTF-8"?>
<svg width="16px" height="16px" viewBox="0 0 16 16" version="1.1" xmlns="http://www.w3.org/2000/svg" xmlns:xlink="http://www.w3.org/1999/xlink">
    <!-- Generator: Sketch 48.2 (47327) - http://www.bohemiancoding.com/sketch -->
    <title>icon/16px/issues-16px</title>
    <desc>Created with Sketch.</desc>
    <defs>
        <path d="M3.19629316,1.19281076 L12.8037068,1.19281076 C13.9082763,1.19281076 14.8037068,2.08824126 14.8037068,3.19281076 L14.8037068,8.26441988 C14.8037068,9.36898938 13.9082763,10.2644199 12.8037068,10.2644199 L3.19629316,10.2644199 C2.09172366,10.2644199 1.19629316,9.36898938 1.19629316,8.26441988 L1.19629316,3.19281076 C1.19629316,2.08824126 2.09172366,1.19281076 3.19629316,1.19281076 Z M2.70822801,2.70474561 L2.70822801,8.75248503 L13.291772,8.75248503 L13.291772,2.70474561 L2.70822801,2.70474561 Z M6.99771773,7.49085992 L5.93533343,6.42847563 C5.66435248,6.15749468 5.66435248,5.71767175 5.93533343,5.44599597 C6.20700921,5.17501502 6.64683214,5.17501502 6.91781309,5.44599597 L7.48826273,6.01644562 L9.08149176,4.42113212 C9.35247271,4.1480667 9.79368528,4.14945635 10.0639714,4.41974247 C10.3356472,4.69072342 10.3356472,5.13054635 10.0653611,5.40222213 L7.9808922,7.4901651 C7.70921643,7.76253569 7.2693935,7.76253569 6.99771773,7.49085992 Z M1.93174494,11.0273521 L14.0272238,11.0273521 C14.0272238,11.8623707 13.3503075,12.539287 12.5152889,12.539287 L3.4436798,12.539287 C2.60866123,12.539287 1.93174494,11.8623707 1.93174494,11.0273521 Z M2.65161635,13.2952544 L13.2351345,13.2952544 C13.2351345,14.1302729 12.5582182,14.8071892 11.7231996,14.8071892 L4.1635512,14.8071892 C3.32853264,14.8071892 2.65161635,14.1302729 2.65161635,13.2952544 Z" id="path-1"></path>
    </defs>
    <g id="Symbols" stroke="none" stroke-width="1" fill="none" fill-rule="evenodd">
        <g id="icon/16px/issues">
            <mask id="mask-2" fill="white">
                <use xlink:href="#path-1"></use>
            </mask>
            <use id="Combined-Shape" fill="#41516F" xlink:href="#path-1"></use>
        </g>
    </g>
</svg>