<?xml version="1.0" encoding="UTF-8"?>
<svg width="16px" height="16px" viewBox="0 0 16 16" version="1.1" xmlns="http://www.w3.org/2000/svg" xmlns:xlink="http://www.w3.org/1999/xlink">
    <!-- Generator: Sketch 48.2 (47327) - http://www.bohemiancoding.com/sketch -->
    <title>icon/16px/lightbulb-16px</title>
    <desc>Created with Sketch.</desc>
    <defs>
        <path d="M8,1.08222776 C5.13571463,1.08222776 2.81437257,3.40356982 2.81437257,6.26785519 C2.81437257,8.185448 4.79248453,10.1445397 4.79248453,10.1445397 C5.12966271,10.4791242 5.40632173,11.1059297 5.40632173,11.5373449 C5.40632173,11.96876 5.79537347,12.3215003 6.27088115,12.3215003 L9.72911885,12.3215003 C10.2046265,12.3215003 10.5936783,11.96876 10.5936783,11.5373449 C10.5936783,11.1059297 10.8703373,10.4791242 11.2075155,10.1445397 C11.2075155,10.1445397 13.1856274,8.185448 13.1856274,6.26785519 C13.1856274,3.40356982 10.8642854,1.08222776 8,1.08222776 L8,1.08222776 Z M8,2.81134661 C9.90548897,2.81134661 11.4565086,4.36150166 11.4565086,6.26785519 C11.4565086,7.15748684 10.466588,8.43876391 9.99108036,8.91686527 C9.55274873,9.35000954 9.20260216,9.96816953 9.01412821,10.5923814 L6.98587179,10.5923814 C6.7982624,9.96816953 6.44811583,9.35173866 6.01324244,8.92032351 C5.53341196,8.43876391 4.54349142,7.15748684 4.54349142,6.26785519 C4.54349142,4.36150166 6.09451103,2.81134661 8,2.81134661 Z M10.5633322,14.0506191 C10.5633322,13.5751115 10.1742805,13.1860597 9.69877281,13.1860597 L6.24053511,13.1860597 C5.76502743,13.1860597 5.37597569,13.5751115 5.37597569,14.0506191 L5.37597569,14.0532128 C5.37597569,14.5287205 5.76502743,14.9177722 6.24053511,14.9177722 L9.69877281,14.9177722 C10.1742805,14.9177722 10.5633322,14.5287205 10.5633322,14.0532128 L10.5633322,14.0506191 Z" id="path-1"></path>
    </defs>
    <g id="Symbols" stroke="none" stroke-width="1" fill="none" fill-rule="evenodd">
        <g id="icon/16px/lightbulb">
            <mask id="mask-2" fill="white">
                <use xlink:href="#path-1"></use>
            </mask>
            <use id="Shape" fill="#42526E" xlink:href="#path-1"></use>
        </g>
    </g>
</svg>