<?xml version="1.0" encoding="UTF-8"?>
<svg width="16px" height="16px" viewBox="0 0 16 16" version="1.1" xmlns="http://www.w3.org/2000/svg" xmlns:xlink="http://www.w3.org/1999/xlink">
    <!-- Generator: Sketch 48.2 (47327) - http://www.bohemiancoding.com/sketch -->
    <title>bamboo/16px/plan-dsaibled-16px</title>
    <desc>Created with Sketch.</desc>
    <defs>
        <path d="M11.7235,8 C11.7235,8.686 11.1635,9.241 10.4945,9.241 L5.5065,9.241 C4.8275,9.241 4.2765,8.69 4.2765,8 C4.2765,7.315 4.8365,6.759 5.5065,6.759 L10.4945,6.759 C11.1725,6.759 11.7235,7.31 11.7235,8 M8,13.6 C4.9123,13.6 2.4,11.0877 2.4,8 C2.4,4.9123 4.9123,2.4 8,2.4 C11.0877,2.4 13.6,4.9123 13.6,8 C13.6,11.0877 11.0877,13.6 8,13.6 M8,1 C4.1339,1 1,4.1339 1,8 C1,11.8661 4.1339,15 8,15 C11.8661,15 15,11.8661 15,8 C15,4.1339 11.8661,1 8,1" id="path-1"></path>
    </defs>
    <g id="Symbols" stroke="none" stroke-width="1" fill="none" fill-rule="evenodd">
        <g id="bamboo/16px/plan-dsaibled">
            <mask id="mask-2" fill="white">
                <use xlink:href="#path-1"></use>
            </mask>
            <use id="plan-dsaibled" fill="#172B4D" xlink:href="#path-1"></use>
        </g>
    </g>
</svg>