<?xml version="1.0" encoding="UTF-8"?>
<svg width="16px" height="16px" viewBox="0 0 16 16" version="1.1" xmlns="http://www.w3.org/2000/svg" xmlns:xlink="http://www.w3.org/1999/xlink">
    <!-- Generator: Sketch 48.2 (47327) - http://www.bohemiancoding.com/sketch -->
    <title>bitbucket/16px/pull-requests-16px</title>
    <desc>Created with Sketch.</desc>
    <defs>
        <path d="M12.5,13 C11.948,13 11.5,12.552 11.5,12 C11.5,11.448 11.948,11 12.5,11 C13.052,11 13.5,11.448 13.5,12 C13.5,12.552 13.052,13 12.5,13 M13.465,9.174 C13.476,9.115 13.5,9.062 13.5,9 L13.5,5 C13.5,3.897 12.603,3 11.5,3 L11.108,3 C11.278,2.631 11.218,2.183 10.914,1.879 C10.523,1.488 9.891,1.488 9.5,1.879 L8.086,3.293 C7.695,3.684 7.695,4.316 8.086,4.707 L9.5,6.121 C9.695,6.316 9.951,6.414 10.207,6.414 C10.463,6.414 10.719,6.316 10.914,6.121 C11.218,5.817 11.278,5.369 11.108,5 L11.5,5 L11.5,9 C11.5,9.062 11.524,9.115 11.535,9.174 C10.355,9.578 9.5,10.686 9.5,12 C9.5,13.654 10.846,15 12.5,15 C14.154,15 15.5,13.654 15.5,12 C15.5,10.686 14.645,9.577 13.465,9.174 M3.5,5 C2.949,5 2.5,4.552 2.5,4 C2.5,3.448 2.949,3 3.5,3 C4.051,3 4.5,3.448 4.5,4 C4.5,4.552 4.051,5 3.5,5 M3.5,1 C1.846,1 0.5,2.346 0.5,4 C0.5,5.302 1.338,6.401 2.5,6.815 L2.5,14 C2.5,14.553 2.948,15 3.5,15 C4.053,15 4.5,14.553 4.5,14 L4.5,6.815 C5.661,6.401 6.5,5.302 6.5,4 C6.5,2.346 5.154,1 3.5,1" id="path-1"></path>
    </defs>
    <g id="Symbols" stroke="none" stroke-width="1" fill="none" fill-rule="evenodd">
        <g id="bitbucket/16px/pull-requests">
            <mask id="mask-2" fill="white">
                <use xlink:href="#path-1"></use>
            </mask>
            <use id="pull-request" fill="#42526E" xlink:href="#path-1"></use>
        </g>
    </g>
</svg>