<?xml version="1.0" encoding="UTF-8"?>
<svg width="16px" height="16px" viewBox="0 0 16 16" version="1.1" xmlns="http://www.w3.org/2000/svg" xmlns:xlink="http://www.w3.org/1999/xlink">
    <!-- Generator: Sketch 48.2 (47327) - http://www.bohemiancoding.com/sketch -->
    <title>icon/16px/recent-filled-16px</title>
    <desc>Created with Sketch.</desc>
    <defs>
        <path d="M8,1 C11.867,1 15,4.133 15,8 C15,11.866 11.867,15 8,15 C4.134,15 1,11.866 1,8 C1,4.133 4.134,1 8,1 Z M10.478,11.401 C10.868,11.011 10.868,10.375 10.478,9.986 L9,8.508 L9,6.926 L9,6.924 L9,6.922 L9,5.307 C9,4.755 8.552,4.307 8,4.307 C7.449,4.307 7,4.755 7,5.307 L7,6.922 L7,6.924 L7,6.926 L7,8.926 C7,9.205 7.117,9.457 7.301,9.638 L9.064,11.401 C9.454,11.789 10.089,11.789 10.478,11.401 Z" id="path-1"></path>
    </defs>
    <g id="Symbols" stroke="none" stroke-width="1" fill="none" fill-rule="evenodd">
        <g id="icon/16px/recent-filled">
            <mask id="mask-2" fill="white">
                <use xlink:href="#path-1"></use>
            </mask>
            <use id="recent-filled" fill="#42526E" xlink:href="#path-1"></use>
        </g>
    </g>
</svg>
