<?xml version="1.0" encoding="UTF-8"?>
<svg width="16px" height="16px" viewBox="0 0 16 16" version="1.1" xmlns="http://www.w3.org/2000/svg" xmlns:xlink="http://www.w3.org/1999/xlink">
    <!-- Generator: Sketch 48.2 (47327) - http://www.bohemiancoding.com/sketch -->
    <title>icon/16px/refresh-16px</title>
    <desc>Created with Sketch.</desc>
    <defs>
        <path d="M11.3194764,11.5583578 C12.3572003,10.5919121 12.9783739,9.19897678 12.9783739,7.69296522 C12.9783739,5.67081433 11.8572488,3.86038436 10.1336538,3.00658731 C9.71955949,2.80177972 9.54363164,2.28673616 9.7403057,1.8555168 C9.88303962,1.54441666 10.1809552,1.36121325 10.4913185,1.36121325 C10.6099868,1.36121325 10.7311446,1.38886659 10.8456637,1.44590162 C13.1426839,2.58314546 14.6380706,4.99762819 14.6380706,7.69296522 C14.6380706,9.76891791 13.7514643,11.6847656 12.282025,12.9763193 L13.8090214,12.9763193 C14.2679275,12.9763193 14.6388697,13.348712 14.6388697,13.807553 C14.6388697,14.266394 14.2679275,14.6387868 13.8090214,14.6387868 L10.5726129,14.6387868 C10.0688949,14.6387868 9.65977967,14.2289885 9.65977967,13.7244296 L9.65977967,10.4909304 C9.65977967,10.0312582 10.0315517,9.65969669 10.489628,9.65969669 C10.9477043,9.65969669 11.3194764,10.0312582 11.3194764,10.4909304 L11.3194764,11.5583578 Z M3.71738647,3.02368072 L2.19114458,3.02368072 C1.73283199,3.02368072 1.36129623,2.6515247 1.36129623,2.19244698 C1.36129623,1.73336927 1.73283199,1.36121325 2.19114458,1.36121325 L5.42755312,1.36121325 C5.93150736,1.36121325 6.3403863,1.77077479 6.3403863,2.27557036 L6.3403863,5.50906958 C6.3403863,5.96814729 5.96885054,6.34030331 5.51053795,6.34030331 C5.05222537,6.34030331 4.68068961,5.96814729 4.68068961,5.50906958 L4.68068961,4.441504 C3.64258139,5.40791465 3.02082695,6.80096867 3.02082695,8.30730119 C3.02082695,10.329403 4.14235012,12.1404518 5.86587873,12.9938731 C6.2797875,13.1988239 6.45578954,13.7144069 6.25899027,14.14546 C6.062191,14.5765131 5.56711432,14.7598052 5.15320554,14.5548544 C2.85656771,13.4176528 1.36113026,11.0028028 1.36113026,8.30730119 C1.36113026,6.23114462 2.24800744,4.31520718 3.71738647,3.02368072 Z" id="path-1"></path>
    </defs>
    <g id="Symbols" stroke="none" stroke-width="1" fill="none" fill-rule="evenodd">
        <g id="icon/16px/refresh">
            <mask id="mask-2" fill="white">
                <use xlink:href="#path-1"></use>
            </mask>
            <use id="refresh-small" fill="#41516F" fill-rule="nonzero" xlink:href="#path-1"></use>
        </g>
    </g>
</svg>