<?xml version="1.0" encoding="UTF-8"?>
<svg width="16px" height="16px" viewBox="0 0 16 16" version="1.1" xmlns="http://www.w3.org/2000/svg" xmlns:xlink="http://www.w3.org/1999/xlink">
    <!-- Generator: Sketch 48.2 (47327) - http://www.bohemiancoding.com/sketch -->
    <title>icon/16px/schedule-filled-16px</title>
    <desc>Created with Sketch.</desc>
    <defs>
        <path d="M11.8413159,10.0949999 L11.8413159,9.39022658 C11.8413159,9.01326431 11.5286222,8.69833332 11.1428948,8.69833332 C10.7544783,8.69833332 10.4444738,9.00810448 10.4444738,9.39022658 L10.4444738,10.0949999 L9.73961183,10.0949999 C9.36260219,10.0949999 9.04763162,10.4076544 9.04763162,10.7933333 C9.04763162,11.181701 9.35744171,11.4916666 9.73961183,11.4916666 L10.4444738,11.4916666 L10.4444738,12.1964399 C10.4444738,12.5734022 10.7571675,12.8883332 11.1428948,12.8883332 C11.5313114,12.8883332 11.8413159,12.578562 11.8413159,12.1964399 L11.8413159,11.4916666 L12.5461779,11.4916666 C12.9231875,11.4916666 13.2381581,11.1790121 13.2381581,10.7933333 C13.2381581,10.4049655 12.928348,10.0949999 12.5461779,10.0949999 L11.8413159,10.0949999 Z M4.85710515,3.11166679 L4.85710515,3.8100001 C4.85710515,4.19548009 4.54421251,4.50833342 4.15868408,4.50833342 C3.77315564,4.50833342 3.460263,4.19548009 3.460263,3.8100001 L3.460263,3.11166679 L3.460263,2.41333347 C3.460263,2.02785348 3.77315564,1.71500015 4.15868408,1.71500015 C4.54421251,1.71500015 4.85710515,2.02785348 4.85710515,2.41333347 L4.85710515,3.11166679 Z M9.04763162,3.11166679 L9.04763162,2.41333347 C9.04763162,2.02785348 9.36052426,1.71500015 9.74605269,1.71500015 C10.1315811,1.71500015 10.4444738,2.02785348 10.4444738,2.41333347 L10.4444738,3.11166679 L10.4444738,3.8100001 C10.4444738,4.19548009 10.1315811,4.50833342 9.74605269,4.50833342 C9.36052426,4.50833342 9.04763162,4.19548009 9.04763162,3.8100001 L9.04763162,3.11166679 Z M12.539737,6.84175233 C12.1028342,6.68734876 11.6326772,6.60333337 11.1428948,6.60333337 C8.82853099,6.60333337 6.95236838,8.47926022 6.95236838,10.7933333 C6.95236838,11.5565148 7.15643505,12.27204 7.51298621,12.8883332 L2.60353315,12.8883332 C1.9193909,12.8883332 1.36499977,12.342062 1.36499977,11.6699162 L1.36499977,4.33008384 C1.36499977,3.65732698 1.91877008,3.11166679 2.60353315,3.11166679 L2.76184192,3.11166679 L2.76184192,3.8100001 C2.76184192,4.58673555 3.38722946,5.20666673 4.15868408,5.20666673 C4.93551714,5.20666673 5.55552623,4.58135778 5.55552623,3.8100001 L5.55552623,3.11166679 L8.34921054,3.11166679 L8.34921054,3.8100001 C8.34921054,4.58673555 8.97459807,5.20666673 9.74605269,5.20666673 C10.5228858,5.20666673 11.1428948,4.58135778 11.1428948,3.8100001 L11.1428948,3.11166679 L11.3012036,3.11166679 C11.9853459,3.11166679 12.539737,3.65854906 12.539737,4.33008384 L12.539737,6.84175233 Z M11.1428948,14.2849998 C9.2142583,14.2849998 7.65078946,12.7217275 7.65078946,10.7933333 C7.65078946,8.86493906 9.2142583,7.30166668 11.1428948,7.30166668 C13.0715314,7.30166668 14.6350002,8.86493906 14.6350002,10.7933333 C14.6350002,12.7217275 13.0715314,14.2849998 11.1428948,14.2849998 Z" id="path-1"></path>
    </defs>
    <g id="Symbols" stroke="none" stroke-width="1" fill="none" fill-rule="evenodd">
        <g id="icon/16px/schedule-filled">
            <mask id="mask-2" fill="white">
                <use xlink:href="#path-1"></use>
            </mask>
            <use id="Combined-Shape" fill="#42526E" xlink:href="#path-1"></use>
        </g>
    </g>
</svg>