<?xml version="1.0" encoding="UTF-8"?>
<svg width="16px" height="16px" viewBox="0 0 16 16" version="1.1" xmlns="http://www.w3.org/2000/svg" xmlns:xlink="http://www.w3.org/1999/xlink">
    <!-- Generator: Sketch 48.2 (47327) - http://www.bohemiancoding.com/sketch -->
    <title>icon/16px/send-16px</title>
    <desc>Created with Sketch.</desc>
    <defs>
        <path d="M5.98272448,7.75430491 L5.98272448,11.4738311 L12.9728627,4.0182529 L3.07488311,4.0182529 L5.45189478,6.50193747 L7.71893761,5.39946756 C8.05006547,5.23843906 8.44522213,5.38441269 8.60154471,5.72550879 C8.75786729,6.06660489 8.61615961,6.4736573 8.28503175,6.6346858 L5.98272448,7.75430491 Z M4.65450957,12.3171815 L4.65450957,7.59988683 L1.61514569,4.3823552 C1.0063898,3.73918133 1.45545115,2.66806522 2.33345402,2.66806522 L13.6060139,2.66806522 C14.5347695,2.66806522 15.0119768,3.79787848 14.3716532,4.48333932 L6.37156352,13.0161182 C5.75076425,13.6775273 4.65450957,13.2308242 4.65450957,12.3171815 Z" id="path-1"></path>
    </defs>
    <g id="Symbols" stroke="none" stroke-width="1" fill="none" fill-rule="evenodd">
        <g id="icon/16px/send">
            <mask id="mask-2" fill="white">
                <use xlink:href="#path-1"></use>
            </mask>
            <use id="Combined-Shape" fill="#3F4F71" xlink:href="#path-1"></use>
        </g>
    </g>
</svg>