<?xml version="1.0" encoding="UTF-8"?>
<svg width="16px" height="16px" viewBox="0 0 16 16" version="1.1" xmlns="http://www.w3.org/2000/svg" xmlns:xlink="http://www.w3.org/1999/xlink">
    <!-- Generator: Sketch 48.2 (47327) - http://www.bohemiancoding.com/sketch -->
    <title>icon/16px/swap-16px</title>
    <desc>Created with Sketch.</desc>
    <defs>
        <path d="M1.40262956,6.01826327 C1.23482725,5.85131709 1.15092609,5.63214673 1.15092609,5.41297636 C1.15092609,5.193806 1.23482725,4.97463563 1.40262956,4.80683332 L3.9667516,2.25726556 C4.30406849,1.92337321 4.84856987,1.92337321 5.18417449,2.25726556 L7.74829653,4.80683332 C7.91524271,4.97549177 8,5.193806 8,5.4138325 C8,5.6312906 7.91524271,5.85046096 7.74829653,6.01826327 C7.41097964,6.35215562 6.8673344,6.35215562 6.53087365,6.01826327 L5.43587796,4.93011665 L5.43587796,6.04052276 L5.43587796,7.67659529 L5.43587796,11.4238949 C5.43587796,11.8973371 5.05061755,12.2808852 4.57546305,12.2808852 C4.10030854,12.2808852 3.71504814,11.8973371 3.71504814,11.4238949 L3.71504814,7.67659529 L3.71504814,6.04052276 L3.71504814,4.93011665 L2.62005244,6.01826327 C2.28359169,6.35215562 1.73909031,6.35215562 1.40262956,6.01826327 Z M14.5973704,9.98173673 C14.7651728,10.1486829 14.8490739,10.3678533 14.8490739,10.5870236 C14.8490739,10.806194 14.7651728,11.0253644 14.5973704,11.1931667 L12.0332484,13.7427344 C11.6959315,14.0766268 11.1514301,14.0766268 10.8158255,13.7427344 L8.25170347,11.1931667 C8.08475729,11.0245082 8,10.806194 8,10.5861675 C8,10.3687094 8.08475729,10.149539 8.25170347,9.98173673 C8.58902036,9.64784438 9.1326656,9.64784438 9.46912635,9.98173673 L10.564122,11.0698833 L10.564122,9.95947724 L10.564122,8.32340471 L10.564122,4.57610515 C10.564122,4.10266291 10.9493825,3.71911477 11.424537,3.71911477 C11.8996915,3.71911477 12.2849519,4.10266291 12.2849519,4.57610515 L12.2849519,8.32340471 L12.2849519,9.95947724 L12.2849519,11.0698833 L13.3799476,9.98173673 C13.7164083,9.64784438 14.2609097,9.64784438 14.5973704,9.98173673 Z" id="path-1"></path>
    </defs>
    <g id="Symbols" stroke="none" stroke-width="1" fill="none" fill-rule="evenodd">
        <g id="icon/16px/swap">
            <mask id="mask-2" fill="white">
                <use xlink:href="#path-1"></use>
            </mask>
            <use id="switch-small" fill="#3F4F71" xlink:href="#path-1"></use>
        </g>
    </g>
</svg>