<?xml version="1.0" encoding="UTF-8"?>
<svg width="16px" height="16px" viewBox="0 0 16 16" version="1.1" xmlns="http://www.w3.org/2000/svg" xmlns:xlink="http://www.w3.org/1999/xlink">
    <!-- Generator: Sketch 48.2 (47327) - http://www.bohemiancoding.com/sketch -->
    <title>confluence/16px/task</title>
    <desc>Created with Sketch.</desc>
    <defs></defs>
    <g id="Editor-icons---v2" stroke="none" stroke-width="1" fill="none" fill-rule="evenodd">
        <g id="confluence/16px/task" fill="#42526E">
            <path d="M2,4.0085302 C2,2.8992496 2.90195036,2 4.0085302,2 L11.9914698,2 C13.1007504,2 14,2.90195036 14,4.0085302 L14,11.9914698 C14,13.1007504 13.0980496,14 11.9914698,14 L4.0085302,14 C2.8992496,14 2,13.0980496 2,11.9914698 L2,4.0085302 Z M5.70710678,7.29289322 C5.31658249,6.90236893 4.68341751,6.90236893 4.29289322,7.29289322 C3.90236893,7.68341751 3.90236893,8.31658249 4.29289322,8.70710678 L6.29289322,10.7071068 C6.68341751,11.0976311 7.31658249,11.0976311 7.70710678,10.7071068 L11.7071068,6.70710678 C12.0976311,6.31658249 12.0976311,5.68341751 11.7071068,5.29289322 C11.3165825,4.90236893 10.6834175,4.90236893 10.2928932,5.29289322 L7,8.58578644 L5.70710678,7.29289322 Z" id="Combined-Shape"></path>
        </g>
    </g>
</svg>