<?xml version="1.0" encoding="UTF-8"?>
<svg width="16px" height="16px" viewBox="0 0 16 16" version="1.1" xmlns="http://www.w3.org/2000/svg" xmlns:xlink="http://www.w3.org/1999/xlink">
    <!-- Generator: Sketch 48.2 (47327) - http://www.bohemiancoding.com/sketch -->
    <title>confluence/16px/three-column-side-bars</title>
    <desc>Created with Sketch.</desc>
    <defs></defs>
    <g id="Editor-icons---v2" stroke="none" stroke-width="1" fill="none" fill-rule="evenodd">
        <g id="confluence/16px/three-column-side-bars" fill="#42526E">
            <path d="M6,2 L10,2 C10.5522847,2 11,2.44771525 11,3 L11,13 C11,13.5522847 10.5522847,14 10,14 L6,14 C5.44771525,14 5,13.5522847 5,13 L5,3 C5,2.44771525 5.44771525,2 6,2 Z" id="Rectangle-16-Copy-5"></path>
            <path d="M2,2 L3,2 C3.55228475,2 4,2.44771525 4,3 L4,13 C4,13.5522847 3.55228475,14 3,14 L2,14 C1.44771525,14 1,13.5522847 1,13 L1,3 C1,2.44771525 1.44771525,2 2,2 Z" id="Rectangle-16-Copy-7"></path>
            <path d="M13,2 L14,2 C14.5522847,2 15,2.44771525 15,3 L15,13 C15,13.5522847 14.5522847,14 14,14 L13,14 C12.4477153,14 12,13.5522847 12,13 L12,3 C12,2.44771525 12.4477153,2 13,2 Z" id="Rectangle-16-Copy-6"></path>
        </g>
    </g>
</svg>