<?xml version="1.0" encoding="UTF-8"?>
<svg width="16px" height="16px" viewBox="0 0 16 16" version="1.1" xmlns="http://www.w3.org/2000/svg" xmlns:xlink="http://www.w3.org/1999/xlink">
    <!-- Generator: Sketch 48.2 (47327) - http://www.bohemiancoding.com/sketch -->
    <title>confluence/16px/two-column</title>
    <desc>Created with Sketch.</desc>
    <defs></defs>
    <g id="Editor-icons---v2" stroke="none" stroke-width="1" fill="none" fill-rule="evenodd">
        <g id="confluence/16px/two-column" fill="#42526E">
            <path d="M3,2 L6,2 C6.55228475,2 7,2.44771525 7,3 L7,13 C7,13.5522847 6.55228475,14 6,14 L3,14 C2.44771525,14 2,13.5522847 2,13 L2,3 C2,2.44771525 2.44771525,2 3,2 Z" id="Rectangle-16-Copy-5"></path>
            <path d="M10,2 L13,2 C13.5522847,2 14,2.44771525 14,3 L14,13 C14,13.5522847 13.5522847,14 13,14 L10,14 C9.44771525,14 9,13.5522847 9,13 L9,3 C9,2.44771525 9.44771525,2 10,2 Z" id="Rectangle-16-Copy-6"></path>
        </g>
    </g>
</svg>