<?xml version="1.0" encoding="UTF-8"?>
<svg width="16px" height="16px" viewBox="0 0 16 16" version="1.1" xmlns="http://www.w3.org/2000/svg" xmlns:xlink="http://www.w3.org/1999/xlink">
    <!-- Generator: Sketch 48.2 (47327) - http://www.bohemiancoding.com/sketch -->
    <title>icon/16px/vid-full-screen-on-16px</title>
    <desc>Created with Sketch.</desc>
    <defs>
        <path d="M3.97285425,13.2322011 L5.00888888,13.2322011 C5.42240999,13.2322011 5.75666666,13.5672056 5.75666666,13.9807267 C5.75666666,14.3942478 5.42240999,14.73 5.00888888,14.73 L2.09255554,14.73 C1.63865443,14.73 1.26999998,14.3605978 1.26999998,13.9059489 L1.26999998,10.9926067 C1.26999998,10.5783378 1.60500443,10.2433333 2.01777776,10.2433333 C2.4305511,10.2433333 2.76555554,10.5783378 2.76555554,10.9926067 L2.76555554,12.0287604 L5.80667984,8.98793384 C5.96683064,8.82866367 6.1786968,8.74777778 6.39056297,8.74777778 C6.60409737,8.74777778 6.81763177,8.82949755 6.98111904,8.99210321 L7.00864496,9.01962109 C7.32978068,9.34066304 7.33561951,9.87017379 7.01281555,10.1937174 L3.97285425,13.2322011 Z M12.151253,2.76805229 L10.9911111,2.76805229 C10.5781249,2.76805229 10.2433333,2.43270186 10.2433333,2.01902614 C10.2433333,1.60535041 10.5781249,1.26999998 10.9911111,1.26999998 L13.9074445,1.26999998 C14.3615585,1.26999998 14.73,1.63905659 14.73,2.09392875 L14.73,5.0076405 C14.73,5.42131623 14.3952085,5.75666666 13.9822222,5.75666666 C13.569236,5.75666666 13.2344445,5.42131623 13.2344445,5.0076405 L13.2344445,3.84625026 L10.5307419,6.54995283 C10.1500754,6.93061931 9.51385397,6.93760369 9.12575235,6.54950207 L9.45049793,6.87424765 C9.06617673,6.48992646 9.06219449,5.85711079 9.45004717,5.46925812 L12.151253,2.76805229 Z" id="path-1"></path>
    </defs>
    <g id="Symbols" stroke="none" stroke-width="1" fill="none" fill-rule="evenodd">
        <g id="icon/16px/vid-full-screen-on">
            <mask id="mask-2" fill="white">
                <use xlink:href="#path-1"></use>
            </mask>
            <use id="full-screen-on-small" fill="#42526E" fill-rule="nonzero" xlink:href="#path-1"></use>
        </g>
    </g>
</svg>