<?xml version="1.0" encoding="UTF-8"?>
<svg width="16px" height="16px" viewBox="0 0 16 16" version="1.1" xmlns="http://www.w3.org/2000/svg" xmlns:xlink="http://www.w3.org/1999/xlink">
    <!-- Generator: Sketch 48.2 (47327) - http://www.bohemiancoding.com/sketch -->
    <title>icon/16px/vid-forward-16px</title>
    <desc>Created with Sketch.</desc>
    <defs>
        <path d="M7.24727317,6.67957267 L7.24727317,2.61672881 C7.24727317,2.06980779 7.59252083,1.90517354 8.01840539,2.26208661 L14.368598,7.58387316 C14.8006012,7.94591396 14.7879992,8.5038007 14.354117,8.84140117 L8.03288643,13.7599029 C7.60690434,14.0913564 7.24727317,13.9230687 7.24727317,13.3702922 L7.24727317,9.66973548 L1.99061318,13.7599029 C1.56463109,14.0913564 1.20499992,13.9230687 1.20499992,13.3702922 L1.20499992,2.61672881 C1.20499992,2.06980779 1.55024758,1.90517354 1.97613214,2.26208661 L7.24727317,6.67957267 Z" id="path-1"></path>
    </defs>
    <g id="Symbols" stroke="none" stroke-width="1" fill="none" fill-rule="evenodd">
        <g id="icon/16px/vid-forward">
            <mask id="mask-2" fill="white">
                <use xlink:href="#path-1"></use>
            </mask>
            <use id="Combined-Shape" fill="#42526E" xlink:href="#path-1"></use>
        </g>
    </g>
</svg>