<?xml version="1.0" encoding="UTF-8"?>
<svg width="16px" height="16px" viewBox="0 0 16 16" version="1.1" xmlns="http://www.w3.org/2000/svg" xmlns:xlink="http://www.w3.org/1999/xlink">
    <!-- Generator: Sketch 48.2 (47327) - http://www.bohemiancoding.com/sketch -->
    <title>icon/16px/vid-hd-circle-16px</title>
    <desc>Created with Sketch.</desc>
    <defs>
        <path d="M8,15 C4.13400675,15 1,11.8659932 1,8 C1,4.13400675 4.13400675,1 8,1 C11.8659932,1 15,4.13400675 15,8 C15,11.8659932 11.8659932,15 8,15 Z M7.55117788,10.1 L7.55117788,5.90290859 L6.50153636,5.90290859 L6.50153636,7.54916898 L4.85250939,7.54916898 L4.85250939,5.90290859 L3.8,5.90290859 L3.8,10.1 L4.85250939,10.1 L4.85250939,8.40720222 L6.50153636,8.40720222 L6.50153636,10.1 L7.55117788,10.1 Z M8.52625469,5.9 L8.52625469,10.1 L10.2641857,10.1 C11.5088426,10.1 12.2,9.33795014 12.2,7.95927978 C12.2,6.64750693 11.4973711,5.9 10.2641857,5.9 L8.52625469,5.9 Z M9.57876408,6.75803324 L10.0749061,6.75803324 C10.7373848,6.75803324 11.1274155,7.19722992 11.1274155,7.97963989 C11.1274155,8.81149584 10.7574599,9.24196676 10.0749061,9.24196676 L9.57876408,9.24196676 L9.57876408,6.75803324 Z" id="path-1"></path>
    </defs>
    <g id="Symbols" stroke="none" stroke-width="1" fill="none" fill-rule="evenodd">
        <g id="icon/16px/vid-hd-circle">
            <mask id="mask-2" fill="white">
                <use xlink:href="#path-1"></use>
            </mask>
            <use id="Combined-Shape" fill="#42526E" xlink:href="#path-1"></use>
        </g>
    </g>
</svg>